# MagicaVoxel @ ephtracy

# material
mtllib Level 14 - World 3.mtl

# normals
vn -1 0 0
vn 1 0 0
vn 0 0 1
vn 0 0 -1
vn 0 -1 0
vn 0 1 0

# texcoords
vt 0.583984 0.5
vt 0.791016 0.5
vt 0.904297 0.5
vt 0.958984 0.5
vt 0.986328 0.5

# verts
v -9 1 4
v -9 1 3
v -9 2 4
v -9 2 3
f -2/3/1 -3/3/1 -4/3/1
f -1/3/1 -3/3/1 -2/3/1
v -7 1 8
v -7 1 6
v -7 1 4
v -7 1 3
v -7 1 1
v -7 1 -3
v -7 2 8
v -7 2 6
v -7 2 4
v -7 2 3
v -7 2 1
v -7 2 -3
f -6/4/1 -11/4/1 -12/4/1
f -5/5/1 -10/5/1 -11/5/1
f -5/4/1 -11/4/1 -6/4/1
f -4/5/1 -10/5/1 -5/5/1
f -3/5/1 -8/5/1 -9/5/1
f -2/4/1 -7/4/1 -8/4/1
f -2/5/1 -8/5/1 -3/5/1
f -1/4/1 -7/4/1 -2/4/1
v -3 1 4
v -3 1 3
v -3 2 4
v -3 2 3
f -2/4/1 -3/4/1 -4/4/1
f -1/4/1 -3/4/1 -2/4/1
v -2 2 2
v -2 2 -2
v -2 3 2
v -2 3 -2
f -2/4/1 -3/4/1 -4/4/1
f -1/4/1 -3/4/1 -2/4/1
v -1 2 8
v -1 2 7
v -1 4 8
v -1 4 7
f -2/2/1 -3/2/1 -4/2/1
f -1/2/1 -3/2/1 -2/2/1
v 1 0 2
v 1 0 -0
v 1 1 2
v 1 1 -0
f -2/4/1 -3/4/1 -4/4/1
f -1/4/1 -3/4/1 -2/4/1
v 5 3 -3
v 5 3 -6
v 5 4 -3
v 5 4 -6
f -2/4/1 -3/4/1 -4/4/1
f -1/4/1 -3/4/1 -2/4/1
v -6 1 7
v -6 1 6
v -6 1 4
v -6 1 3
v -6 1 1
v -6 1 -2
v -6 2 7
v -6 2 6
v -6 2 4
v -6 2 3
v -6 2 1
v -6 2 -2
f -12/4/2 -11/4/2 -6/4/2
f -11/5/2 -10/5/2 -5/5/2
f -6/4/2 -11/4/2 -5/4/2
f -5/5/2 -10/5/2 -4/5/2
f -9/5/2 -8/5/2 -3/5/2
f -8/4/2 -7/4/2 -2/4/2
f -3/5/2 -8/5/2 -2/5/2
f -2/4/2 -7/4/2 -1/4/2
v -4 1 4
v -4 1 3
v -4 2 4
v -4 2 3
f -4/3/2 -3/3/2 -2/3/2
f -2/3/2 -3/3/2 -1/3/2
v -3 1 -2
v -3 1 -3
v -3 2 -2
v -3 2 -3
f -4/4/2 -3/4/2 -2/4/2
f -2/4/2 -3/4/2 -1/4/2
v -1 2 2
v -1 2 -2
v -1 3 2
v -1 3 -2
f -4/4/2 -3/4/2 -2/4/2
f -2/4/2 -3/4/2 -1/4/2
v 0 1 8
v 0 1 7
v 0 4 8
v 0 4 7
f -4/2/2 -3/2/2 -2/2/2
f -2/2/2 -3/2/2 -1/2/2
v 1 1 4
v 1 1 3
v 1 2 4
v 1 2 3
f -4/4/2 -3/4/2 -2/4/2
f -2/4/2 -3/4/2 -1/4/2
v 2 0 2
v 2 0 1
v 2 1 2
v 2 1 1
f -4/4/2 -3/4/2 -2/4/2
f -2/4/2 -3/4/2 -1/4/2
v 4 0 1
v 4 0 -0
v 4 1 1
v 4 1 -0
f -4/4/2 -3/4/2 -2/4/2
f -2/4/2 -3/4/2 -1/4/2
v 6 3 -3
v 6 3 -4
v 6 3 -5
v 6 3 -6
v 6 4 -3
v 6 4 -4
v 6 4 -5
v 6 4 -6
f -8/4/2 -7/4/2 -4/4/2
f -4/4/2 -7/4/2 -3/4/2
f -6/4/2 -5/4/2 -2/4/2
f -2/4/2 -5/4/2 -1/4/2
v 7 3 -4
v 7 3 -5
v 7 4 -4
v 7 4 -5
f -4/1/2 -3/1/2 -2/1/2
f -2/1/2 -3/1/2 -1/1/2
v -7 1 8
v -7 2 8
v -1 1 8
v -1 2 8
v -1 4 8
v 0 1 8
v 0 4 8
f -5/4/3 -6/4/3 -7/4/3
f -4/4/3 -6/4/3 -5/4/3
f -2/2/3 -4/2/3 -5/2/3
f -2/2/3 -3/2/3 -4/2/3
f -1/2/3 -3/2/3 -2/2/3
v -9 1 4
v -9 2 4
v -7 1 4
v -7 2 4
v -6 1 4
v -6 2 4
v -4 1 4
v -4 2 4
v -3 1 4
v -3 2 4
v 1 1 4
v 1 2 4
f -10/3/3 -11/3/3 -12/3/3
f -9/3/3 -11/3/3 -10/3/3
f -6/3/3 -7/3/3 -8/3/3
f -5/3/3 -7/3/3 -6/3/3
f -2/4/3 -3/4/3 -4/4/3
f -1/4/3 -3/4/3 -2/4/3
v -2 2 2
v -2 3 2
v -1 2 2
v -1 3 2
v 1 0 2
v 1 1 2
v 2 0 2
v 2 1 2
f -6/4/3 -7/4/3 -8/4/3
f -5/4/3 -7/4/3 -6/4/3
f -2/4/3 -3/4/3 -4/4/3
f -1/4/3 -3/4/3 -2/4/3
v 2 0 1
v 2 1 1
v 4 0 1
v 4 1 1
f -2/4/3 -3/4/3 -4/4/3
f -1/4/3 -3/4/3 -2/4/3
v -6 1 -2
v -6 2 -2
v -3 1 -2
v -3 2 -2
f -2/4/3 -3/4/3 -4/4/3
f -1/4/3 -3/4/3 -2/4/3
v 5 3 -3
v 5 4 -3
v 6 3 -3
v 6 4 -3
f -2/4/3 -3/4/3 -4/4/3
f -1/4/3 -3/4/3 -2/4/3
v 6 3 -4
v 6 4 -4
v 7 3 -4
v 7 4 -4
f -2/1/3 -3/1/3 -4/1/3
f -1/1/3 -3/1/3 -2/1/3
v -6 1 7
v -6 2 7
v -1 1 7
v -1 2 7
v -1 4 7
v 0 1 7
v 0 4 7
f -7/4/4 -6/4/4 -5/4/4
f -5/4/4 -6/4/4 -4/4/4
f -5/2/4 -4/2/4 -2/2/4
f -4/2/4 -3/2/4 -2/2/4
f -2/2/4 -3/2/4 -1/2/4
v -9 1 3
v -9 2 3
v -7 1 3
v -7 2 3
v -6 1 3
v -6 2 3
v -4 1 3
v -4 2 3
v -3 1 3
v -3 2 3
v 1 1 3
v 1 2 3
f -12/3/4 -11/3/4 -10/3/4
f -10/3/4 -11/3/4 -9/3/4
f -8/3/4 -7/3/4 -6/3/4
f -6/3/4 -7/3/4 -5/3/4
f -4/4/4 -3/4/4 -2/4/4
f -2/4/4 -3/4/4 -1/4/4
v 1 0 -0
v 1 1 -0
v 4 0 -0
v 4 1 -0
f -4/4/4 -3/4/4 -2/4/4
f -2/4/4 -3/4/4 -1/4/4
v -2 2 -2
v -2 3 -2
v -1 2 -2
v -1 3 -2
f -4/4/4 -3/4/4 -2/4/4
f -2/4/4 -3/4/4 -1/4/4
v -7 1 -3
v -7 2 -3
v -3 1 -3
v -3 2 -3
f -4/4/4 -3/4/4 -2/4/4
f -2/4/4 -3/4/4 -1/4/4
v 6 3 -5
v 6 4 -5
v 7 3 -5
v 7 4 -5
f -4/1/4 -3/1/4 -2/1/4
f -2/1/4 -3/1/4 -1/1/4
v 5 3 -6
v 5 4 -6
v 6 3 -6
v 6 4 -6
f -4/4/4 -3/4/4 -2/4/4
f -2/4/4 -3/4/4 -1/4/4
v 1 0 2
v 2 0 2
v 2 0 1
v 4 0 1
v 1 0 -0
v 4 0 -0
f -4/4/5 -5/4/5 -6/4/5
f -2/4/5 -4/4/5 -6/4/5
f -2/4/5 -3/4/5 -4/4/5
f -1/4/5 -3/4/5 -2/4/5
v -7 1 8
v -1 1 8
v 0 1 8
v -6 1 7
v -1 1 7
v 0 1 7
v -7 1 6
v -6 1 6
v -9 1 4
v -7 1 4
v -6 1 4
v -4 1 4
v -3 1 4
v 1 1 4
v -9 1 3
v -7 1 3
v -6 1 3
v -4 1 3
v -3 1 3
v 1 1 3
v -7 1 1
v -6 1 1
v -6 1 -2
v -3 1 -2
v -7 1 -3
v -3 1 -3
f -23/4/5 -25/4/5 -26/4/5
f -22/2/5 -24/2/5 -25/2/5
f -22/4/5 -25/4/5 -23/4/5
f -21/2/5 -24/2/5 -22/2/5
f -20/4/5 -23/4/5 -26/4/5
f -19/4/5 -23/4/5 -20/4/5
f -17/5/5 -19/5/5 -20/5/5
f -16/5/5 -19/5/5 -17/5/5
f -12/3/5 -15/3/5 -16/3/5
f -12/3/5 -16/3/5 -17/3/5
f -12/3/5 -17/3/5 -18/3/5
f -11/3/5 -15/3/5 -12/3/5
f -10/3/5 -15/3/5 -11/3/5
f -9/3/5 -15/3/5 -10/3/5
f -8/4/5 -13/4/5 -14/4/5
f -7/4/5 -13/4/5 -8/4/5
f -6/5/5 -10/5/5 -11/5/5
f -5/5/5 -10/5/5 -6/5/5
f -4/4/5 -5/4/5 -6/4/5
f -2/4/5 -4/4/5 -6/4/5
f -2/4/5 -3/4/5 -4/4/5
f -1/4/5 -3/4/5 -2/4/5
v -2 2 2
v -1 2 2
v -2 2 -2
v -1 2 -2
f -2/4/5 -3/4/5 -4/4/5
f -1/4/5 -3/4/5 -2/4/5
v 5 3 -3
v 6 3 -3
v 6 3 -4
v 7 3 -4
v 6 3 -5
v 7 3 -5
v 5 3 -6
v 6 3 -6
f -6/4/5 -7/4/5 -8/4/5
f -4/4/5 -6/4/5 -8/4/5
f -4/1/5 -5/1/5 -6/1/5
f -3/1/5 -5/1/5 -4/1/5
f -2/4/5 -4/4/5 -8/4/5
f -1/4/5 -4/4/5 -2/4/5
v 1 1 2
v 2 1 2
v 2 1 1
v 4 1 1
v 1 1 -0
v 4 1 -0
f -6/4/6 -5/4/6 -4/4/6
f -6/4/6 -4/4/6 -2/4/6
f -4/4/6 -3/4/6 -2/4/6
f -2/4/6 -3/4/6 -1/4/6
v -7 2 8
v -1 2 8
v -6 2 7
v -1 2 7
v -7 2 6
v -6 2 6
v -9 2 4
v -7 2 4
v -6 2 4
v -4 2 4
v -3 2 4
v 1 2 4
v -9 2 3
v -7 2 3
v -6 2 3
v -4 2 3
v -3 2 3
v 1 2 3
v -7 2 1
v -6 2 1
v -6 2 -2
v -3 2 -2
v -7 2 -3
v -3 2 -3
f -24/4/6 -23/4/6 -22/4/6
f -22/4/6 -23/4/6 -21/4/6
f -24/4/6 -22/4/6 -20/4/6
f -20/4/6 -22/4/6 -19/4/6
f -20/5/6 -19/5/6 -17/5/6
f -17/5/6 -19/5/6 -16/5/6
f -16/3/6 -15/3/6 -12/3/6
f -17/3/6 -16/3/6 -12/3/6
f -18/3/6 -17/3/6 -12/3/6
f -12/3/6 -15/3/6 -11/3/6
f -11/3/6 -15/3/6 -10/3/6
f -10/3/6 -15/3/6 -9/3/6
f -14/4/6 -13/4/6 -8/4/6
f -8/4/6 -13/4/6 -7/4/6
f -11/5/6 -10/5/6 -6/5/6
f -6/5/6 -10/5/6 -5/5/6
f -6/4/6 -5/4/6 -4/4/6
f -6/4/6 -4/4/6 -2/4/6
f -4/4/6 -3/4/6 -2/4/6
f -2/4/6 -3/4/6 -1/4/6
v -2 3 2
v -1 3 2
v -2 3 -2
v -1 3 -2
f -4/4/6 -3/4/6 -2/4/6
f -2/4/6 -3/4/6 -1/4/6
v -1 4 8
v 0 4 8
v -1 4 7
v 0 4 7
v 5 4 -3
v 6 4 -3
v 6 4 -4
v 7 4 -4
v 6 4 -5
v 7 4 -5
v 5 4 -6
v 6 4 -6
f -12/2/6 -11/2/6 -10/2/6
f -10/2/6 -11/2/6 -9/2/6
f -8/4/6 -7/4/6 -6/4/6
f -8/4/6 -6/4/6 -4/4/6
f -6/1/6 -5/1/6 -4/1/6
f -4/1/6 -5/1/6 -3/1/6
f -8/4/6 -4/4/6 -2/4/6
f -2/4/6 -4/4/6 -1/4/6
