# MagicaVoxel @ ephtracy

# material
mtllib Level 5 - Wolrd 1.mtl

# normals
vn -1 0 0
vn 1 0 0
vn 0 0 1
vn 0 0 -1
vn 0 -1 0
vn 0 1 0

# texcoords
vt 0.583984 0.5
vt 0.791016 0.5
vt 0.892578 0.5
vt 0.958984 0.5
vt 0.986328 0.5

# verts
v -7.5 1 1.5
v -7.5 1 0.5
v -7.5 2 1.5
v -7.5 2 0.5
f -2/5/1 -3/5/1 -4/5/1
f -1/5/1 -3/5/1 -2/5/1
v -6.5 0 6.5
v -6.5 0 2.5
v -6.5 0 -0.5
v -6.5 0 -4.5
v -6.5 1 6.5
v -6.5 1 2.5
v -6.5 1 -0.5
v -6.5 1 -4.5
f -4/4/1 -7/4/1 -8/4/1
f -3/4/1 -7/4/1 -4/4/1
f -2/4/1 -5/4/1 -6/4/1
f -1/4/1 -5/4/1 -2/4/1
v -3.5 1 3.5
v -3.5 1 1.5
v -3.5 1 0.5
v -3.5 1 -1.5
v -3.5 2 3.5
v -3.5 2 1.5
v -3.5 2 0.5
v -3.5 2 -1.5
f -4/4/1 -7/4/1 -8/4/1
f -3/4/1 -7/4/1 -4/4/1
f -2/4/1 -5/4/1 -6/4/1
f -1/4/1 -5/4/1 -2/4/1
v -2.5 2 2.5
v -2.5 2 1.5
v -2.5 4 2.5
v -2.5 4 1.5
f -2/2/1 -3/2/1 -4/2/1
f -1/2/1 -3/2/1 -2/2/1
v -1.5 1 7.5
v -1.5 1 5.5
v -1.5 1 3.5
v -1.5 1 -1.5
v -1.5 1 -3.5
v -1.5 1 -5.5
v -1.5 2 7.5
v -1.5 2 5.5
v -1.5 2 3.5
v -1.5 2 -1.5
v -1.5 2 -3.5
v -1.5 2 -5.5
f -6/5/1 -11/5/1 -12/5/1
f -5/3/1 -10/3/1 -11/3/1
f -5/5/1 -11/5/1 -6/5/1
f -4/3/1 -10/3/1 -5/3/1
f -3/3/1 -8/3/1 -9/3/1
f -2/5/1 -7/5/1 -8/5/1
f -2/3/1 -8/3/1 -3/3/1
f -1/5/1 -7/5/1 -2/5/1
v 0.5 0 6.5
v 0.5 0 5.5
v 0.5 0 -3.5
v 0.5 0 -4.5
v 0.5 1 6.5
v 0.5 1 5.5
v 0.5 1 2.5
v 0.5 1 1.5
v 0.5 1 0.5
v 0.5 1 -0.5
v 0.5 1 -3.5
v 0.5 1 -4.5
v 0.5 2 2.5
v 0.5 2 1.5
v 0.5 2 0.5
v 0.5 2 -0.5
f -12/4/1 -15/4/1 -16/4/1
f -11/4/1 -15/4/1 -12/4/1
f -6/4/1 -13/4/1 -14/4/1
f -5/4/1 -13/4/1 -6/4/1
f -4/4/1 -9/4/1 -10/4/1
f -3/3/1 -8/3/1 -9/3/1
f -3/4/1 -9/4/1 -4/4/1
f -2/4/1 -7/4/1 -8/4/1
f -2/3/1 -8/3/1 -3/3/1
f -1/4/1 -7/4/1 -2/4/1
v 3.5 0 5.5
v 3.5 0 2.5
v 3.5 0 -0.5
v 3.5 0 -3.5
v 3.5 1 5.5
v 3.5 1 2.5
v 3.5 1 -0.5
v 3.5 1 -3.5
f -4/4/1 -7/4/1 -8/4/1
f -3/4/1 -7/4/1 -4/4/1
f -2/4/1 -5/4/1 -6/4/1
f -1/4/1 -5/4/1 -2/4/1
v -5.5 0 5.5
v -5.5 0 2.5
v -5.5 0 -0.5
v -5.5 0 -3.5
v -5.5 1 5.5
v -5.5 1 2.5
v -5.5 1 -0.5
v -5.5 1 -3.5
f -8/4/2 -7/4/2 -4/4/2
f -4/4/2 -7/4/2 -3/4/2
f -6/4/2 -5/4/2 -2/4/2
f -2/4/2 -5/4/2 -1/4/2
v -2.5 0 6.5
v -2.5 0 5.5
v -2.5 0 -3.5
v -2.5 0 -4.5
v -2.5 1 6.5
v -2.5 1 5.5
v -2.5 1 1.5
v -2.5 1 0.5
v -2.5 1 -0.5
v -2.5 1 -3.5
v -2.5 1 -4.5
v -2.5 2 1.5
v -2.5 2 0.5
v -2.5 2 -0.5
f -14/4/2 -13/4/2 -10/4/2
f -10/4/2 -13/4/2 -9/4/2
f -12/4/2 -11/4/2 -5/4/2
f -5/4/2 -11/4/2 -4/4/2
f -8/3/2 -7/3/2 -3/3/2
f -7/4/2 -6/4/2 -2/4/2
f -3/3/2 -7/3/2 -2/3/2
f -2/4/2 -6/4/2 -1/4/2
v -1.5 1 2.5
v -1.5 1 1.5
v -1.5 2 2.5
v -1.5 2 1.5
v -1.5 4 2.5
v -1.5 4 1.5
f -6/4/2 -5/4/2 -4/4/2
f -4/4/2 -5/4/2 -3/4/2
f -4/2/2 -3/2/2 -2/2/2
f -2/2/2 -3/2/2 -1/2/2
v -0.5 1 7.5
v -0.5 1 5.5
v -0.5 1 3.5
v -0.5 1 -1.5
v -0.5 1 -3.5
v -0.5 1 -5.5
v -0.5 2 7.5
v -0.5 2 5.5
v -0.5 2 3.5
v -0.5 2 -1.5
v -0.5 2 -3.5
v -0.5 2 -5.5
f -12/5/2 -11/5/2 -6/5/2
f -11/3/2 -10/3/2 -5/3/2
f -6/5/2 -11/5/2 -5/5/2
f -5/3/2 -10/3/2 -4/3/2
f -9/3/2 -8/3/2 -3/3/2
f -8/5/2 -7/5/2 -2/5/2
f -3/3/2 -8/3/2 -2/3/2
f -2/5/2 -7/5/2 -1/5/2
v 1.5 1 3.5
v 1.5 1 1.5
v 1.5 1 0.5
v 1.5 1 -0.5
v 1.5 1 -1.5
v 1.5 2 3.5
v 1.5 2 1.5
v 1.5 2 0.5
v 1.5 2 -0.5
v 1.5 2 -1.5
f -10/4/2 -9/4/2 -5/4/2
f -5/4/2 -9/4/2 -4/4/2
f -8/4/2 -7/4/2 -3/4/2
f -7/1/2 -6/1/2 -2/1/2
f -3/4/2 -7/4/2 -2/4/2
f -2/1/2 -6/1/2 -1/1/2
v 4.5 0 6.5
v 4.5 0 2.5
v 4.5 0 -0.5
v 4.5 0 -4.5
v 4.5 1 6.5
v 4.5 1 2.5
v 4.5 1 -0.5
v 4.5 1 -4.5
f -8/4/2 -7/4/2 -4/4/2
f -4/4/2 -7/4/2 -3/4/2
f -6/4/2 -5/4/2 -2/4/2
f -2/4/2 -5/4/2 -1/4/2
v 5.5 1 1.5
v 5.5 1 0.5
v 5.5 2 1.5
v 5.5 2 0.5
f -4/5/2 -3/5/2 -2/5/2
f -2/5/2 -3/5/2 -1/5/2
v -1.5 1 7.5
v -1.5 2 7.5
v -0.5 1 7.5
v -0.5 2 7.5
f -2/5/3 -3/5/3 -4/5/3
f -1/5/3 -3/5/3 -2/5/3
v -6.5 0 6.5
v -6.5 1 6.5
v -2.5 0 6.5
v -2.5 1 6.5
v 0.5 0 6.5
v 0.5 1 6.5
v 4.5 0 6.5
v 4.5 1 6.5
f -6/4/3 -7/4/3 -8/4/3
f -5/4/3 -7/4/3 -6/4/3
f -2/4/3 -3/4/3 -4/4/3
f -1/4/3 -3/4/3 -2/4/3
v -3.5 1 3.5
v -3.5 2 3.5
v -1.5 1 3.5
v -1.5 2 3.5
v -0.5 1 3.5
v -0.5 2 3.5
v 1.5 1 3.5
v 1.5 2 3.5
f -6/4/3 -7/4/3 -8/4/3
f -5/4/3 -7/4/3 -6/4/3
f -2/4/3 -3/4/3 -4/4/3
f -1/4/3 -3/4/3 -2/4/3
v -2.5 2 2.5
v -2.5 4 2.5
v -1.5 2 2.5
v -1.5 4 2.5
f -2/2/3 -3/2/3 -4/2/3
f -1/2/3 -3/2/3 -2/2/3
v -7.5 1 1.5
v -7.5 2 1.5
v -5.5 1 1.5
v -5.5 2 1.5
v -3.5 1 1.5
v -3.5 2 1.5
v 1.5 1 1.5
v 1.5 2 1.5
v 3.5 1 1.5
v 3.5 2 1.5
v 5.5 1 1.5
v 5.5 2 1.5
f -10/5/3 -11/5/3 -12/5/3
f -9/5/3 -11/5/3 -10/5/3
f -8/3/3 -9/3/3 -10/3/3
f -7/3/3 -9/3/3 -8/3/3
f -4/3/3 -5/3/3 -6/3/3
f -3/3/3 -5/3/3 -4/3/3
f -2/5/3 -3/5/3 -4/5/3
f -1/5/3 -3/5/3 -2/5/3
v -6.5 0 -0.5
v -6.5 1 -0.5
v -5.5 0 -0.5
v -5.5 1 -0.5
v -2.5 1 -0.5
v -2.5 2 -0.5
v -1.5 1 -0.5
v -1.5 2 -0.5
v -0.5 1 -0.5
v -0.5 2 -0.5
v 0.5 1 -0.5
v 0.5 2 -0.5
v 3.5 0 -0.5
v 3.5 1 -0.5
v 4.5 0 -0.5
v 4.5 1 -0.5
f -14/4/3 -15/4/3 -16/4/3
f -13/4/3 -15/4/3 -14/4/3
f -10/4/3 -11/4/3 -12/4/3
f -9/4/3 -11/4/3 -10/4/3
f -8/3/3 -9/3/3 -10/3/3
f -7/3/3 -9/3/3 -8/3/3
f -6/4/3 -7/4/3 -8/4/3
f -5/4/3 -7/4/3 -6/4/3
f -2/4/3 -3/4/3 -4/4/3
f -1/4/3 -3/4/3 -2/4/3
v -5.5 0 -3.5
v -5.5 1 -3.5
v -2.5 0 -3.5
v -2.5 1 -3.5
v 0.5 0 -3.5
v 0.5 1 -3.5
v 3.5 0 -3.5
v 3.5 1 -3.5
f -6/4/3 -7/4/3 -8/4/3
f -5/4/3 -7/4/3 -6/4/3
f -2/4/3 -3/4/3 -4/4/3
f -1/4/3 -3/4/3 -2/4/3
v -5.5 0 5.5
v -5.5 1 5.5
v -2.5 0 5.5
v -2.5 1 5.5
v 0.5 0 5.5
v 0.5 1 5.5
v 3.5 0 5.5
v 3.5 1 5.5
f -8/4/4 -7/4/4 -6/4/4
f -6/4/4 -7/4/4 -5/4/4
f -4/4/4 -3/4/4 -2/4/4
f -2/4/4 -3/4/4 -1/4/4
v -6.5 0 2.5
v -6.5 1 2.5
v -5.5 0 2.5
v -5.5 1 2.5
v -1.5 1 2.5
v -1.5 2 2.5
v -0.5 1 2.5
v -0.5 2 2.5
v 0.5 1 2.5
v 0.5 2 2.5
v 3.5 0 2.5
v 3.5 1 2.5
v 4.5 0 2.5
v 4.5 1 2.5
f -14/4/4 -13/4/4 -12/4/4
f -12/4/4 -13/4/4 -11/4/4
f -10/3/4 -9/3/4 -8/3/4
f -8/3/4 -9/3/4 -7/3/4
f -8/4/4 -7/4/4 -6/4/4
f -6/4/4 -7/4/4 -5/4/4
f -4/4/4 -3/4/4 -2/4/4
f -2/4/4 -3/4/4 -1/4/4
v -2.5 1 1.5
v -2.5 2 1.5
v -2.5 4 1.5
v -1.5 1 1.5
v -1.5 2 1.5
v -1.5 4 1.5
f -6/4/4 -5/4/4 -3/4/4
f -5/2/4 -4/2/4 -2/2/4
f -3/4/4 -5/4/4 -2/4/4
f -2/2/4 -4/2/4 -1/2/4
v -7.5 1 0.5
v -7.5 2 0.5
v -5.5 1 0.5
v -5.5 2 0.5
v -3.5 1 0.5
v -3.5 2 0.5
v 1.5 1 0.5
v 1.5 2 0.5
v 3.5 1 0.5
v 3.5 2 0.5
v 5.5 1 0.5
v 5.5 2 0.5
f -12/5/4 -11/5/4 -10/5/4
f -10/5/4 -11/5/4 -9/5/4
f -10/3/4 -9/3/4 -8/3/4
f -8/3/4 -9/3/4 -7/3/4
f -6/3/4 -5/3/4 -4/3/4
f -4/3/4 -5/3/4 -3/3/4
f -4/5/4 -3/5/4 -2/5/4
f -2/5/4 -3/5/4 -1/5/4
v -3.5 1 -1.5
v -3.5 2 -1.5
v -1.5 1 -1.5
v -1.5 2 -1.5
v -0.5 1 -1.5
v -0.5 2 -1.5
v 0.5 1 -1.5
v 0.5 2 -1.5
v 1.5 1 -1.5
v 1.5 2 -1.5
f -10/4/4 -9/4/4 -8/4/4
f -8/4/4 -9/4/4 -7/4/4
f -6/4/4 -5/4/4 -4/4/4
f -4/4/4 -5/4/4 -3/4/4
f -4/1/4 -3/1/4 -2/1/4
f -2/1/4 -3/1/4 -1/1/4
v -6.5 0 -4.5
v -6.5 1 -4.5
v -2.5 0 -4.5
v -2.5 1 -4.5
v 0.5 0 -4.5
v 0.5 1 -4.5
v 4.5 0 -4.5
v 4.5 1 -4.5
f -8/4/4 -7/4/4 -6/4/4
f -6/4/4 -7/4/4 -5/4/4
f -4/4/4 -3/4/4 -2/4/4
f -2/4/4 -3/4/4 -1/4/4
v -1.5 1 -5.5
v -1.5 2 -5.5
v -0.5 1 -5.5
v -0.5 2 -5.5
f -4/5/4 -3/5/4 -2/5/4
f -2/5/4 -3/5/4 -1/5/4
v -6.5 0 6.5
v -2.5 0 6.5
v 0.5 0 6.5
v 4.5 0 6.5
v -5.5 0 5.5
v -2.5 0 5.5
v 0.5 0 5.5
v 3.5 0 5.5
v -6.5 0 2.5
v -5.5 0 2.5
v 3.5 0 2.5
v 4.5 0 2.5
v -6.5 0 -0.5
v -5.5 0 -0.5
v 3.5 0 -0.5
v 4.5 0 -0.5
v -5.5 0 -3.5
v -2.5 0 -3.5
v 0.5 0 -3.5
v 3.5 0 -3.5
v -6.5 0 -4.5
v -2.5 0 -4.5
v 0.5 0 -4.5
v 4.5 0 -4.5
f -20/4/5 -23/4/5 -24/4/5
f -19/4/5 -23/4/5 -20/4/5
f -18/4/5 -21/4/5 -22/4/5
f -17/4/5 -21/4/5 -18/4/5
f -16/4/5 -20/4/5 -24/4/5
f -15/4/5 -20/4/5 -16/4/5
f -14/4/5 -21/4/5 -17/4/5
f -13/4/5 -21/4/5 -14/4/5
f -8/4/5 -11/4/5 -12/4/5
f -5/4/5 -9/4/5 -10/4/5
f -4/4/5 -7/4/5 -8/4/5
f -4/4/5 -8/4/5 -12/4/5
f -3/4/5 -7/4/5 -4/4/5
f -2/4/5 -5/4/5 -6/4/5
f -1/4/5 -9/4/5 -5/4/5
f -1/4/5 -5/4/5 -2/4/5
v -1.5 1 7.5
v -0.5 1 7.5
v -1.5 1 5.5
v -0.5 1 5.5
v -3.5 1 3.5
v -1.5 1 3.5
v -0.5 1 3.5
v 1.5 1 3.5
v -1.5 1 2.5
v -0.5 1 2.5
v 0.5 1 2.5
v -7.5 1 1.5
v -5.5 1 1.5
v -3.5 1 1.5
v -2.5 1 1.5
v -1.5 1 1.5
v 0.5 1 1.5
v 1.5 1 1.5
v 3.5 1 1.5
v 5.5 1 1.5
v -7.5 1 0.5
v -5.5 1 0.5
v -3.5 1 0.5
v -2.5 1 0.5
v 0.5 1 0.5
v 1.5 1 0.5
v 3.5 1 0.5
v 5.5 1 0.5
v -2.5 1 -0.5
v -1.5 1 -0.5
v -0.5 1 -0.5
v 0.5 1 -0.5
v 1.5 1 -0.5
v -3.5 1 -1.5
v -1.5 1 -1.5
v -0.5 1 -1.5
v 0.5 1 -1.5
v 1.5 1 -1.5
v -1.5 1 -3.5
v -0.5 1 -3.5
v -1.5 1 -5.5
v -0.5 1 -5.5
f -40/5/5 -41/5/5 -42/5/5
f -39/5/5 -41/5/5 -40/5/5
f -37/3/5 -39/3/5 -40/3/5
f -36/3/5 -39/3/5 -37/3/5
f -34/3/5 -36/3/5 -37/3/5
f -34/4/5 -37/4/5 -38/4/5
f -33/4/5 -35/4/5 -36/4/5
f -33/3/5 -36/3/5 -34/3/5
f -32/4/5 -35/4/5 -33/4/5
f -29/4/5 -34/4/5 -38/4/5
f -28/4/5 -34/4/5 -29/4/5
f -27/4/5 -34/4/5 -28/4/5
f -26/4/5 -35/4/5 -32/4/5
f -25/4/5 -35/4/5 -26/4/5
f -22/5/5 -30/5/5 -31/5/5
f -21/3/5 -29/3/5 -30/3/5
f -21/5/5 -30/5/5 -22/5/5
f -21/3/5 -28/3/5 -29/3/5
f -20/3/5 -28/3/5 -21/3/5
f -19/3/5 -28/3/5 -20/3/5
f -18/3/5 -24/3/5 -25/3/5
f -18/3/5 -25/3/5 -26/3/5
f -17/3/5 -24/3/5 -18/3/5
f -16/5/5 -23/5/5 -24/5/5
f -16/3/5 -24/3/5 -17/3/5
f -15/5/5 -23/5/5 -16/5/5
f -14/4/5 -19/4/5 -20/4/5
f -11/4/5 -17/4/5 -18/4/5
f -10/4/5 -17/4/5 -11/4/5
f -9/4/5 -14/4/5 -20/4/5
f -9/4/5 -13/4/5 -14/4/5
f -8/3/5 -12/3/5 -13/3/5
f -8/4/5 -13/4/5 -9/4/5
f -7/4/5 -11/4/5 -12/4/5
f -7/3/5 -12/3/5 -8/3/5
f -6/1/5 -10/1/5 -11/1/5
f -6/4/5 -11/4/5 -7/4/5
f -5/1/5 -10/1/5 -6/1/5
f -4/3/5 -7/3/5 -8/3/5
f -3/3/5 -7/3/5 -4/3/5
f -2/5/5 -3/5/5 -4/5/5
f -1/5/5 -3/5/5 -2/5/5
v -6.5 1 6.5
v -2.5 1 6.5
v 0.5 1 6.5
v 4.5 1 6.5
v -5.5 1 5.5
v -2.5 1 5.5
v 0.5 1 5.5
v 3.5 1 5.5
v -6.5 1 2.5
v -5.5 1 2.5
v 3.5 1 2.5
v 4.5 1 2.5
v -6.5 1 -0.5
v -5.5 1 -0.5
v 3.5 1 -0.5
v 4.5 1 -0.5
v -5.5 1 -3.5
v -2.5 1 -3.5
v 0.5 1 -3.5
v 3.5 1 -3.5
v -6.5 1 -4.5
v -2.5 1 -4.5
v 0.5 1 -4.5
v 4.5 1 -4.5
f -24/4/6 -23/4/6 -20/4/6
f -20/4/6 -23/4/6 -19/4/6
f -22/4/6 -21/4/6 -18/4/6
f -18/4/6 -21/4/6 -17/4/6
f -24/4/6 -20/4/6 -16/4/6
f -16/4/6 -20/4/6 -15/4/6
f -17/4/6 -21/4/6 -14/4/6
f -14/4/6 -21/4/6 -13/4/6
f -12/4/6 -11/4/6 -8/4/6
f -10/4/6 -9/4/6 -5/4/6
f -8/4/6 -7/4/6 -4/4/6
f -12/4/6 -8/4/6 -4/4/6
f -4/4/6 -7/4/6 -3/4/6
f -6/4/6 -5/4/6 -2/4/6
f -5/4/6 -9/4/6 -1/4/6
f -2/4/6 -5/4/6 -1/4/6
v -1.5 2 7.5
v -0.5 2 7.5
v -1.5 2 5.5
v -0.5 2 5.5
v -3.5 2 3.5
v -1.5 2 3.5
v -0.5 2 3.5
v 1.5 2 3.5
v -2.5 2 2.5
v -1.5 2 2.5
v -0.5 2 2.5
v 0.5 2 2.5
v -7.5 2 1.5
v -5.5 2 1.5
v -3.5 2 1.5
v -2.5 2 1.5
v 0.5 2 1.5
v 1.5 2 1.5
v 3.5 2 1.5
v 5.5 2 1.5
v -7.5 2 0.5
v -5.5 2 0.5
v -3.5 2 0.5
v -2.5 2 0.5
v 0.5 2 0.5
v 1.5 2 0.5
v 3.5 2 0.5
v 5.5 2 0.5
v -2.5 2 -0.5
v -1.5 2 -0.5
v -0.5 2 -0.5
v 0.5 2 -0.5
v 1.5 2 -0.5
v -3.5 2 -1.5
v -1.5 2 -1.5
v -0.5 2 -1.5
v 0.5 2 -1.5
v 1.5 2 -1.5
v -1.5 2 -3.5
v -0.5 2 -3.5
v -1.5 2 -5.5
v -0.5 2 -5.5
f -42/5/6 -41/5/6 -40/5/6
f -40/5/6 -41/5/6 -39/5/6
f -40/3/6 -39/3/6 -37/3/6
f -37/3/6 -39/3/6 -36/3/6
f -38/4/6 -37/4/6 -34/4/6
f -37/3/6 -36/3/6 -33/3/6
f -34/4/6 -37/4/6 -33/4/6
f -36/4/6 -35/4/6 -32/4/6
f -33/3/6 -36/3/6 -32/3/6
f -32/4/6 -35/4/6 -31/4/6
f -38/4/6 -34/4/6 -28/4/6
f -28/4/6 -34/4/6 -27/4/6
f -31/4/6 -35/4/6 -26/4/6
f -26/4/6 -35/4/6 -25/4/6
f -30/5/6 -29/5/6 -22/5/6
f -28/3/6 -27/3/6 -21/3/6
f -22/5/6 -29/5/6 -21/5/6
f -29/3/6 -28/3/6 -21/3/6
f -21/3/6 -27/3/6 -20/3/6
f -20/3/6 -27/3/6 -19/3/6
f -25/3/6 -24/3/6 -18/3/6
f -26/3/6 -25/3/6 -18/3/6
f -18/3/6 -24/3/6 -17/3/6
f -24/5/6 -23/5/6 -16/5/6
f -17/3/6 -24/3/6 -16/3/6
f -16/5/6 -23/5/6 -15/5/6
f -20/4/6 -19/4/6 -14/4/6
f -18/4/6 -17/4/6 -11/4/6
f -11/4/6 -17/4/6 -10/4/6
f -20/4/6 -14/4/6 -9/4/6
f -14/4/6 -13/4/6 -9/4/6
f -13/3/6 -12/3/6 -8/3/6
f -9/4/6 -13/4/6 -8/4/6
f -12/4/6 -11/4/6 -7/4/6
f -8/3/6 -12/3/6 -7/3/6
f -11/1/6 -10/1/6 -6/1/6
f -7/4/6 -11/4/6 -6/4/6
f -6/1/6 -10/1/6 -5/1/6
f -8/3/6 -7/3/6 -4/3/6
f -4/3/6 -7/3/6 -3/3/6
f -4/5/6 -3/5/6 -2/5/6
f -2/5/6 -3/5/6 -1/5/6
v -2.5 4 2.5
v -1.5 4 2.5
v -2.5 4 1.5
v -1.5 4 1.5
f -4/2/6 -3/2/6 -2/2/6
f -2/2/6 -3/2/6 -1/2/6
