# MagicaVoxel @ ephtracy

# material
mtllib Level 10 - World 2.mtl

# normals
vn -1 0 0
vn 1 0 0
vn 0 0 1
vn 0 0 -1
vn 0 -1 0
vn 0 1 0

# texcoords
vt 0.583984 0.5
vt 0.775391 0.5
vt 0.892578 0.5
vt 0.958984 0.5
vt 0.986328 0.5

# verts
v -8 0 3
v -8 0 -1
v -8 1 3
v -8 1 -1
f -2/4/1 -3/4/1 -4/4/1
f -1/4/1 -3/4/1 -2/4/1
v -6 1 1
v -6 1 -0
v -6 2 -3
v -6 2 -4
v -6 3 1
v -6 3 -0
v -6 3 -3
v -6 3 -4
f -4/2/1 -7/2/1 -8/2/1
f -3/2/1 -7/2/1 -4/2/1
f -2/4/1 -5/4/1 -6/4/1
f -1/4/1 -5/4/1 -2/4/1
v -3 2 -0
v -3 2 -3
v -3 3 -0
v -3 3 -3
f -2/4/1 -3/4/1 -4/4/1
f -1/4/1 -3/4/1 -2/4/1
v -2 3 6
v -2 3 5
v -2 3 4
v -2 4 6
v -2 4 5
v -2 4 4
f -3/1/1 -5/1/1 -6/1/1
f -2/4/1 -4/4/1 -5/4/1
f -2/1/1 -5/1/1 -3/1/1
f -1/4/1 -4/4/1 -2/4/1
v -1 3 4
v -1 3 3
v -1 3 -2
v -1 3 -3
v -1 4 4
v -1 4 3
v -1 4 -2
v -1 4 -3
f -4/5/1 -7/5/1 -8/5/1
f -3/5/1 -7/5/1 -4/5/1
f -2/5/1 -5/5/1 -6/5/1
f -1/5/1 -5/5/1 -2/5/1
v 1 3 1
v 1 3 -0
v 1 4 1
v 1 4 -0
f -2/3/1 -3/3/1 -4/3/1
f -1/3/1 -3/3/1 -2/3/1
v 3 3 3
v 3 3 1
v 3 3 -0
v 3 3 -2
v 3 4 3
v 3 4 1
v 3 4 -0
v 3 4 -2
f -4/5/1 -7/5/1 -8/5/1
f -3/5/1 -7/5/1 -4/5/1
f -2/5/1 -5/5/1 -6/5/1
f -1/5/1 -5/5/1 -2/5/1
v -7 0 2
v -7 0 1
v -7 0 -0
v -7 0 -1
v -7 1 2
v -7 1 1
v -7 1 -0
v -7 1 -1
f -8/4/2 -7/4/2 -4/4/2
f -4/4/2 -7/4/2 -3/4/2
f -6/4/2 -5/4/2 -2/4/2
f -2/4/2 -5/4/2 -1/4/2
v -5 0 1
v -5 0 -0
v -5 1 1
v -5 1 -0
v -5 3 1
v -5 3 -0
f -6/4/2 -5/4/2 -4/4/2
f -4/4/2 -5/4/2 -3/4/2
f -4/2/2 -3/2/2 -2/2/2
f -2/2/2 -3/2/2 -1/2/2
v -4 0 3
v -4 0 2
v -4 1 3
v -4 1 2
f -4/4/2 -3/4/2 -2/4/2
f -2/4/2 -3/4/2 -1/4/2
v -2 2 -0
v -2 2 -4
v -2 3 -0
v -2 3 -4
f -4/4/2 -3/4/2 -2/4/2
f -2/4/2 -3/4/2 -1/4/2
v -1 3 6
v -1 3 5
v -1 4 6
v -1 4 5
f -4/1/2 -3/1/2 -2/1/2
f -2/1/2 -3/1/2 -1/1/2
v 0 3 5
v 0 3 4
v 0 4 5
v 0 4 4
f -4/4/2 -3/4/2 -2/4/2
f -2/4/2 -3/4/2 -1/4/2
v 4 3 3
v 4 3 1
v 4 3 -0
v 4 3 -2
v 4 4 3
v 4 4 1
v 4 4 -0
v 4 4 -2
f -8/5/2 -7/5/2 -4/5/2
f -4/5/2 -7/5/2 -3/5/2
f -6/5/2 -5/5/2 -2/5/2
f -2/5/2 -5/5/2 -1/5/2
v 6 3 4
v 6 3 3
v 6 3 1
v 6 3 -0
v 6 3 -2
v 6 3 -3
v 6 4 4
v 6 4 3
v 6 4 1
v 6 4 -0
v 6 4 -2
v 6 4 -3
f -12/3/2 -11/3/2 -6/3/2
f -6/3/2 -11/3/2 -5/3/2
f -10/3/2 -9/3/2 -4/3/2
f -4/3/2 -9/3/2 -3/3/2
f -8/3/2 -7/3/2 -2/3/2
f -2/3/2 -7/3/2 -1/3/2
v -2 3 6
v -2 4 6
v -1 3 6
v -1 4 6
f -2/1/3 -3/1/3 -4/1/3
f -1/1/3 -3/1/3 -2/1/3
v -1 3 5
v -1 4 5
v 0 3 5
v 0 4 5
f -2/4/3 -3/4/3 -4/4/3
f -1/4/3 -3/4/3 -2/4/3
v 0 3 4
v 0 4 4
v 1 3 4
v 1 4 4
v 6 3 4
v 6 4 4
f -4/5/3 -5/5/3 -6/5/3
f -3/5/3 -5/5/3 -4/5/3
f -2/3/3 -3/3/3 -4/3/3
f -1/3/3 -3/3/3 -2/3/3
v -8 0 3
v -8 1 3
v -4 0 3
v -4 1 3
f -2/4/3 -3/4/3 -4/4/3
f -1/4/3 -3/4/3 -2/4/3
v -7 0 1
v -7 1 1
v -6 1 1
v -6 3 1
v -5 0 1
v -5 1 1
v -5 3 1
v 1 3 1
v 1 4 1
v 3 3 1
v 3 4 1
v 4 3 1
v 4 4 1
v 6 3 1
v 6 4 1
f -13/4/3 -14/4/3 -15/4/3
f -11/4/3 -13/4/3 -15/4/3
f -10/2/3 -12/2/3 -13/2/3
f -10/4/3 -13/4/3 -11/4/3
f -9/2/3 -12/2/3 -10/2/3
f -6/3/3 -7/3/3 -8/3/3
f -5/3/3 -7/3/3 -6/3/3
f -2/3/3 -3/3/3 -4/3/3
f -1/3/3 -3/3/3 -2/3/3
v -3 2 -0
v -3 3 -0
v -2 2 -0
v -2 3 -0
f -2/4/3 -3/4/3 -4/4/3
f -1/4/3 -3/4/3 -2/4/3
v -1 3 -2
v -1 4 -2
v 1 3 -2
v 1 4 -2
v 3 3 -2
v 3 4 -2
v 4 3 -2
v 4 4 -2
v 6 3 -2
v 6 4 -2
f -8/5/3 -9/5/3 -10/5/3
f -7/5/3 -9/5/3 -8/5/3
f -6/3/3 -7/3/3 -8/3/3
f -5/3/3 -7/3/3 -6/3/3
f -2/3/3 -3/3/3 -4/3/3
f -1/3/3 -3/3/3 -2/3/3
v -6 2 -3
v -6 3 -3
v -3 2 -3
v -3 3 -3
f -2/4/3 -3/4/3 -4/4/3
f -1/4/3 -3/4/3 -2/4/3
v -2 3 4
v -2 4 4
v -1 3 4
v -1 4 4
f -4/4/4 -3/4/4 -2/4/4
f -2/4/4 -3/4/4 -1/4/4
v -1 3 3
v -1 4 3
v 1 3 3
v 1 4 3
v 3 3 3
v 3 4 3
v 4 3 3
v 4 4 3
v 6 3 3
v 6 4 3
f -10/5/4 -9/5/4 -8/5/4
f -8/5/4 -9/5/4 -7/5/4
f -8/3/4 -7/3/4 -6/3/4
f -6/3/4 -7/3/4 -5/3/4
f -4/3/4 -3/3/4 -2/3/4
f -2/3/4 -3/3/4 -1/3/4
v -7 0 2
v -7 1 2
v -4 0 2
v -4 1 2
f -4/4/4 -3/4/4 -2/4/4
f -2/4/4 -3/4/4 -1/4/4
v -7 0 -0
v -7 1 -0
v -6 1 -0
v -6 3 -0
v -5 0 -0
v -5 1 -0
v -5 3 -0
v 1 3 -0
v 1 4 -0
v 3 3 -0
v 3 4 -0
v 4 3 -0
v 4 4 -0
v 6 3 -0
v 6 4 -0
f -15/4/4 -14/4/4 -13/4/4
f -15/4/4 -13/4/4 -11/4/4
f -13/2/4 -12/2/4 -10/2/4
f -11/4/4 -13/4/4 -10/4/4
f -10/2/4 -12/2/4 -9/2/4
f -8/3/4 -7/3/4 -6/3/4
f -6/3/4 -7/3/4 -5/3/4
f -4/3/4 -3/3/4 -2/3/4
f -2/3/4 -3/3/4 -1/3/4
v -8 0 -1
v -8 1 -1
v -7 0 -1
v -7 1 -1
f -4/4/4 -3/4/4 -2/4/4
f -2/4/4 -3/4/4 -1/4/4
v -1 3 -3
v -1 4 -3
v 1 3 -3
v 1 4 -3
v 6 3 -3
v 6 4 -3
f -6/5/4 -5/5/4 -4/5/4
f -4/5/4 -5/5/4 -3/5/4
f -4/3/4 -3/3/4 -2/3/4
f -2/3/4 -3/3/4 -1/3/4
v -6 2 -4
v -6 3 -4
v -2 2 -4
v -2 3 -4
f -4/4/4 -3/4/4 -2/4/4
f -2/4/4 -3/4/4 -1/4/4
v -8 0 3
v -4 0 3
v -7 0 2
v -4 0 2
v -7 0 1
v -5 0 1
v -7 0 -0
v -5 0 -0
v -8 0 -1
v -7 0 -1
f -8/4/5 -9/4/5 -10/4/5
f -7/4/5 -9/4/5 -8/4/5
f -6/4/5 -8/4/5 -10/4/5
f -4/4/5 -6/4/5 -10/4/5
f -4/4/5 -5/4/5 -6/4/5
f -3/4/5 -5/4/5 -4/4/5
f -2/4/5 -4/4/5 -10/4/5
f -1/4/5 -4/4/5 -2/4/5
v -3 2 -0
v -2 2 -0
v -6 2 -3
v -3 2 -3
v -6 2 -4
v -2 2 -4
f -3/4/5 -5/4/5 -6/4/5
f -2/4/5 -3/4/5 -4/4/5
f -1/4/5 -5/4/5 -3/4/5
f -1/4/5 -3/4/5 -2/4/5
v -2 3 6
v -1 3 6
v -2 3 5
v -1 3 5
v 0 3 5
v -2 3 4
v -1 3 4
v 0 3 4
v 1 3 4
v 6 3 4
v -1 3 3
v 1 3 3
v 3 3 3
v 4 3 3
v 6 3 3
v 1 3 1
v 3 3 1
v 4 3 1
v 6 3 1
v 1 3 -0
v 3 3 -0
v 4 3 -0
v 6 3 -0
v -1 3 -2
v 1 3 -2
v 3 3 -2
v 4 3 -2
v 6 3 -2
v -1 3 -3
v 1 3 -3
v 6 3 -3
f -29/1/5 -30/1/5 -31/1/5
f -28/1/5 -30/1/5 -29/1/5
f -26/4/5 -28/4/5 -29/4/5
f -26/4/5 -27/4/5 -28/4/5
f -25/4/5 -27/4/5 -26/4/5
f -24/4/5 -27/4/5 -25/4/5
f -21/5/5 -24/5/5 -25/5/5
f -21/5/5 -23/5/5 -24/5/5
f -20/3/5 -22/3/5 -23/3/5
f -20/5/5 -23/5/5 -21/5/5
f -19/3/5 -22/3/5 -20/3/5
f -18/3/5 -22/3/5 -19/3/5
f -17/3/5 -22/3/5 -18/3/5
f -15/5/5 -18/5/5 -19/5/5
f -14/5/5 -18/5/5 -15/5/5
f -12/3/5 -15/3/5 -16/3/5
f -12/3/5 -13/3/5 -14/3/5
f -12/3/5 -14/3/5 -15/3/5
f -11/3/5 -13/3/5 -12/3/5
f -10/3/5 -13/3/5 -11/3/5
f -9/3/5 -13/3/5 -10/3/5
f -6/5/5 -10/5/5 -11/5/5
f -5/5/5 -10/5/5 -6/5/5
f -3/5/5 -7/5/5 -8/5/5
f -2/3/5 -4/3/5 -5/3/5
f -2/5/5 -7/5/5 -3/5/5
f -2/3/5 -6/3/5 -7/3/5
f -2/3/5 -5/3/5 -6/3/5
f -1/3/5 -4/3/5 -2/3/5
v -8 1 3
v -4 1 3
v -7 1 2
v -4 1 2
v -7 1 1
v -6 1 1
v -7 1 -0
v -6 1 -0
v -8 1 -1
v -7 1 -1
f -10/4/6 -9/4/6 -8/4/6
f -8/4/6 -9/4/6 -7/4/6
f -10/4/6 -8/4/6 -6/4/6
f -10/4/6 -6/4/6 -4/4/6
f -6/4/6 -5/4/6 -4/4/6
f -4/4/6 -5/4/6 -3/4/6
f -10/4/6 -4/4/6 -2/4/6
f -2/4/6 -4/4/6 -1/4/6
v -6 3 1
v -5 3 1
v -6 3 -0
v -5 3 -0
v -3 3 -0
v -2 3 -0
v -6 3 -3
v -3 3 -3
v -6 3 -4
v -2 3 -4
f -10/2/6 -9/2/6 -8/2/6
f -8/2/6 -9/2/6 -7/2/6
f -6/4/6 -5/4/6 -3/4/6
f -4/4/6 -3/4/6 -2/4/6
f -3/4/6 -5/4/6 -1/4/6
f -2/4/6 -3/4/6 -1/4/6
v -2 4 6
v -1 4 6
v -2 4 5
v -1 4 5
v 0 4 5
v -2 4 4
v -1 4 4
v 0 4 4
v 1 4 4
v 6 4 4
v -1 4 3
v 1 4 3
v 3 4 3
v 4 4 3
v 6 4 3
v 1 4 1
v 3 4 1
v 4 4 1
v 6 4 1
v 1 4 -0
v 3 4 -0
v 4 4 -0
v 6 4 -0
v -1 4 -2
v 1 4 -2
v 3 4 -2
v 4 4 -2
v 6 4 -2
v -1 4 -3
v 1 4 -3
v 6 4 -3
f -31/1/6 -30/1/6 -29/1/6
f -29/1/6 -30/1/6 -28/1/6
f -29/4/6 -28/4/6 -26/4/6
f -28/4/6 -27/4/6 -26/4/6
f -26/4/6 -27/4/6 -25/4/6
f -25/4/6 -27/4/6 -24/4/6
f -25/5/6 -24/5/6 -21/5/6
f -24/5/6 -23/5/6 -21/5/6
f -23/3/6 -22/3/6 -20/3/6
f -21/5/6 -23/5/6 -20/5/6
f -20/3/6 -22/3/6 -19/3/6
f -19/3/6 -22/3/6 -18/3/6
f -18/3/6 -22/3/6 -17/3/6
f -19/5/6 -18/5/6 -15/5/6
f -15/5/6 -18/5/6 -14/5/6
f -16/3/6 -15/3/6 -12/3/6
f -14/3/6 -13/3/6 -12/3/6
f -15/3/6 -14/3/6 -12/3/6
f -12/3/6 -13/3/6 -11/3/6
f -11/3/6 -13/3/6 -10/3/6
f -10/3/6 -13/3/6 -9/3/6
f -11/5/6 -10/5/6 -6/5/6
f -6/5/6 -10/5/6 -5/5/6
f -8/5/6 -7/5/6 -3/5/6
f -5/3/6 -4/3/6 -2/3/6
f -3/5/6 -7/5/6 -2/5/6
f -7/3/6 -6/3/6 -2/3/6
f -6/3/6 -5/3/6 -2/3/6
f -2/3/6 -4/3/6 -1/3/6
