# MagicaVoxel @ ephtracy

# material
mtllib Level 12 - World 2.mtl

# normals
vn -1 0 0
vn 1 0 0
vn 0 0 1
vn 0 0 -1
vn 0 -1 0
vn 0 1 0

# texcoords
vt 0.560547 0.5
vt 0.583984 0.5
vt 0.748047 0.5
vt 0.775391 0.5
vt 0.849609 0.5
vt 0.896484 0.5
vt 0.958984 0.5
vt 0.986328 0.5

# verts
v -8 1 5
v -8 1 2
v -8 2 5
v -8 2 4
v -8 2 2
v -8 4 5
v -8 4 4
f -5/7/1 -6/7/1 -7/7/1
f -4/7/1 -6/7/1 -5/7/1
f -3/7/1 -6/7/1 -4/7/1
f -2/4/1 -4/4/1 -5/4/1
f -1/4/1 -4/4/1 -2/4/1
v -7 2 3
v -7 2 2
v -7 3 3
v -7 3 2
f -2/8/1 -3/8/1 -4/8/1
f -1/8/1 -3/8/1 -2/8/1
v -4 1 -1
v -4 1 -4
v -4 2 6
v -4 2 3
v -4 2 2
v -4 2 -0
v -4 2 -1
v -4 2 -4
v -4 3 6
v -4 3 3
v -4 3 2
v -4 3 -0
v -4 3 -1
f -7/7/1 -12/7/1 -13/7/1
f -6/7/1 -12/7/1 -7/7/1
f -5/8/1 -10/8/1 -11/8/1
f -4/8/1 -10/8/1 -5/8/1
f -3/6/1 -8/6/1 -9/6/1
f -2/5/1 -7/5/1 -8/5/1
f -2/6/1 -8/6/1 -3/6/1
f -1/5/1 -7/5/1 -2/5/1
v 0 0 -1
v 0 0 -2
v 0 1 -1
v 0 1 -2
f -2/7/1 -3/7/1 -4/7/1
f -1/7/1 -3/7/1 -2/7/1
v 1 0 -2
v 1 0 -3
v 1 1 -2
v 1 1 -3
f -2/1/1 -3/1/1 -4/1/1
f -1/1/1 -3/1/1 -2/1/1
v -7 1 5
v -7 1 2
v -7 2 5
v -7 2 4
v -7 2 3
v -7 2 2
v -7 4 5
v -7 4 4
f -8/7/2 -7/7/2 -6/7/2
f -6/7/2 -7/7/2 -5/7/2
f -5/7/2 -7/7/2 -4/7/2
f -4/7/2 -7/7/2 -3/7/2
f -6/4/2 -5/4/2 -2/4/2
f -2/4/2 -5/4/2 -1/4/2
v -3 1 -1
v -3 1 -3
v -3 2 6
v -3 2 3
v -3 2 2
v -3 2 -0
v -3 2 -1
v -3 2 -3
v -3 3 6
v -3 3 3
v -3 3 2
v -3 3 -0
v -3 3 -1
f -13/7/2 -12/7/2 -7/7/2
f -7/7/2 -12/7/2 -6/7/2
f -11/8/2 -10/8/2 -5/8/2
f -5/8/2 -10/8/2 -4/8/2
f -9/6/2 -8/6/2 -3/6/2
f -8/5/2 -7/5/2 -2/5/2
f -3/6/2 -8/6/2 -2/6/2
f -2/5/2 -7/5/2 -1/5/2
v 0 1 -3
v 0 1 -4
v 0 2 3
v 0 2 2
v 0 2 -3
v 0 2 -4
v 0 3 3
v 0 3 2
f -8/7/2 -7/7/2 -4/7/2
f -4/7/2 -7/7/2 -3/7/2
f -6/5/2 -5/5/2 -2/5/2
f -2/5/2 -5/5/2 -1/5/2
v 5 0 -1
v 5 0 -2
v 5 1 -1
v 5 1 -2
f -4/3/2 -3/3/2 -2/3/2
f -2/3/2 -3/3/2 -1/3/2
v 6 0 -2
v 6 0 -3
v 6 1 -2
v 6 1 -3
f -4/2/2 -3/2/2 -2/2/2
f -2/2/2 -3/2/2 -1/2/2
v -4 2 6
v -4 3 6
v -3 2 6
v -3 3 6
f -2/8/3 -3/8/3 -4/8/3
f -1/8/3 -3/8/3 -2/8/3
v -8 1 5
v -8 2 5
v -8 4 5
v -7 1 5
v -7 2 5
v -7 4 5
f -3/7/3 -5/7/3 -6/7/3
f -2/4/3 -4/4/3 -5/4/3
f -2/7/3 -5/7/3 -3/7/3
f -1/4/3 -4/4/3 -2/4/3
v -7 2 3
v -7 3 3
v -4 2 3
v -4 3 3
v -3 2 3
v -3 3 3
v -1 2 3
v -1 3 3
v 0 2 3
v 0 3 3
f -8/8/3 -9/8/3 -10/8/3
f -7/8/3 -9/8/3 -8/8/3
f -4/6/3 -5/6/3 -6/6/3
f -3/6/3 -5/6/3 -4/6/3
f -2/5/3 -3/5/3 -4/5/3
f -1/5/3 -3/5/3 -2/5/3
v -4 1 -1
v -4 2 -1
v -3 1 -1
v -3 2 -1
v 0 0 -1
v 0 1 -1
v 4 0 -1
v 4 1 -1
v 5 0 -1
v 5 1 -1
f -8/7/3 -9/7/3 -10/7/3
f -7/7/3 -9/7/3 -8/7/3
f -4/7/3 -5/7/3 -6/7/3
f -3/7/3 -5/7/3 -4/7/3
f -2/3/3 -3/3/3 -4/3/3
f -1/3/3 -3/3/3 -2/3/3
v 5 0 -2
v 5 1 -2
v 6 0 -2
v 6 1 -2
f -2/2/3 -3/2/3 -4/2/3
f -1/2/3 -3/2/3 -2/2/3
v -3 1 -3
v -3 2 -3
v 0 1 -3
v 0 2 -3
f -2/7/3 -3/7/3 -4/7/3
f -1/7/3 -3/7/3 -2/7/3
v -8 2 4
v -8 4 4
v -7 2 4
v -7 4 4
f -4/4/4 -3/4/4 -2/4/4
f -2/4/4 -3/4/4 -1/4/4
v -8 1 2
v -8 2 2
v -7 1 2
v -7 2 2
v -7 3 2
v -4 2 2
v -4 3 2
v -3 2 2
v -3 3 2
v -1 2 2
v -1 3 2
v 0 2 2
v 0 3 2
f -13/7/4 -12/7/4 -11/7/4
f -11/7/4 -12/7/4 -10/7/4
f -10/8/4 -9/8/4 -8/8/4
f -8/8/4 -9/8/4 -7/8/4
f -6/6/4 -5/6/4 -4/6/4
f -4/6/4 -5/6/4 -3/6/4
f -4/5/4 -3/5/4 -2/5/4
f -2/5/4 -3/5/4 -1/5/4
v -4 2 -1
v -4 3 -1
v -3 2 -1
v -3 3 -1
f -4/5/4 -3/5/4 -2/5/4
f -2/5/4 -3/5/4 -1/5/4
v 0 0 -2
v 0 1 -2
v 1 0 -2
v 1 1 -2
f -4/7/4 -3/7/4 -2/7/4
f -2/7/4 -3/7/4 -1/7/4
v 1 0 -3
v 1 1 -3
v 2 0 -3
v 2 1 -3
v 5 0 -3
v 5 1 -3
v 6 0 -3
v 6 1 -3
f -8/1/4 -7/1/4 -6/1/4
f -6/1/4 -7/1/4 -5/1/4
f -6/7/4 -5/7/4 -4/7/4
f -4/7/4 -5/7/4 -3/7/4
f -4/2/4 -3/2/4 -2/2/4
f -2/2/4 -3/2/4 -1/2/4
v -4 1 -4
v -4 2 -4
v 0 1 -4
v 0 2 -4
f -4/7/4 -3/7/4 -2/7/4
f -2/7/4 -3/7/4 -1/7/4
v 0 0 -1
v 4 0 -1
v 5 0 -1
v 0 0 -2
v 1 0 -2
v 2 0 -2
v 4 0 -2
v 5 0 -2
v 6 0 -2
v 1 0 -3
v 2 0 -3
v 5 0 -3
v 6 0 -3
f -10/7/5 -12/7/5 -13/7/5
f -9/7/5 -12/7/5 -10/7/5
f -8/7/5 -12/7/5 -9/7/5
f -7/3/5 -11/3/5 -12/3/5
f -7/7/5 -12/7/5 -8/7/5
f -6/3/5 -11/3/5 -7/3/5
f -4/1/5 -8/1/5 -9/1/5
f -3/7/5 -6/7/5 -7/7/5
f -3/1/5 -8/1/5 -4/1/5
f -3/7/5 -7/7/5 -8/7/5
f -2/2/5 -5/2/5 -6/2/5
f -2/7/5 -6/7/5 -3/7/5
f -1/2/5 -5/2/5 -2/2/5
v -8 1 5
v -7 1 5
v -8 1 2
v -7 1 2
v -4 1 -1
v -3 1 -1
v -3 1 -3
v 0 1 -3
v -4 1 -4
v 0 1 -4
f -8/7/5 -9/7/5 -10/7/5
f -7/7/5 -9/7/5 -8/7/5
f -4/7/5 -5/7/5 -6/7/5
f -2/7/5 -4/7/5 -6/7/5
f -2/7/5 -3/7/5 -4/7/5
f -1/7/5 -3/7/5 -2/7/5
v -4 2 6
v -3 2 6
v -7 2 3
v -4 2 3
v -3 2 3
v -1 2 3
v 0 2 3
v -7 2 2
v -4 2 2
v -3 2 2
v -1 2 2
v 0 2 2
v -4 2 -0
v -3 2 -0
v -4 2 -1
v -3 2 -1
f -13/8/5 -15/8/5 -16/8/5
f -12/8/5 -15/8/5 -13/8/5
f -9/8/5 -13/8/5 -14/8/5
f -8/6/5 -12/6/5 -13/6/5
f -8/8/5 -13/8/5 -9/8/5
f -8/6/5 -11/6/5 -12/6/5
f -7/6/5 -11/6/5 -8/6/5
f -6/5/5 -10/5/5 -11/5/5
f -6/6/5 -11/6/5 -7/6/5
f -5/5/5 -10/5/5 -6/5/5
f -4/6/5 -7/6/5 -8/6/5
f -3/6/5 -7/6/5 -4/6/5
f -2/5/5 -3/5/5 -4/5/5
f -1/5/5 -3/5/5 -2/5/5
v 0 1 -1
v 4 1 -1
v 5 1 -1
v 0 1 -2
v 1 1 -2
v 2 1 -2
v 4 1 -2
v 5 1 -2
v 6 1 -2
v 1 1 -3
v 2 1 -3
v 5 1 -3
v 6 1 -3
f -13/7/6 -12/7/6 -10/7/6
f -10/7/6 -12/7/6 -9/7/6
f -9/7/6 -12/7/6 -8/7/6
f -12/3/6 -11/3/6 -7/3/6
f -8/7/6 -12/7/6 -7/7/6
f -7/3/6 -11/3/6 -6/3/6
f -9/1/6 -8/1/6 -4/1/6
f -7/7/6 -6/7/6 -3/7/6
f -4/1/6 -8/1/6 -3/1/6
f -8/7/6 -7/7/6 -3/7/6
f -6/2/6 -5/2/6 -2/2/6
f -3/7/6 -6/7/6 -2/7/6
f -2/2/6 -5/2/6 -1/2/6
v -8 2 4
v -7 2 4
v -7 2 3
v -8 2 2
v -7 2 2
v -4 2 -1
v -3 2 -1
v -3 2 -3
v 0 2 -3
v -4 2 -4
v 0 2 -4
f -11/7/6 -10/7/6 -9/7/6
f -11/7/6 -9/7/6 -8/7/6
f -8/7/6 -9/7/6 -7/7/6
f -6/7/6 -5/7/6 -4/7/6
f -6/7/6 -4/7/6 -2/7/6
f -4/7/6 -3/7/6 -2/7/6
f -2/7/6 -3/7/6 -1/7/6
v -4 3 6
v -3 3 6
v -7 3 3
v -4 3 3
v -3 3 3
v -1 3 3
v 0 3 3
v -7 3 2
v -4 3 2
v -3 3 2
v -1 3 2
v 0 3 2
v -4 3 -0
v -3 3 -0
v -4 3 -1
v -3 3 -1
f -16/8/6 -15/8/6 -13/8/6
f -13/8/6 -15/8/6 -12/8/6
f -14/8/6 -13/8/6 -9/8/6
f -13/6/6 -12/6/6 -8/6/6
f -9/8/6 -13/8/6 -8/8/6
f -12/6/6 -11/6/6 -8/6/6
f -8/6/6 -11/6/6 -7/6/6
f -11/5/6 -10/5/6 -6/5/6
f -7/6/6 -11/6/6 -6/6/6
f -6/5/6 -10/5/6 -5/5/6
f -8/6/6 -7/6/6 -4/6/6
f -4/6/6 -7/6/6 -3/6/6
f -4/5/6 -3/5/6 -2/5/6
f -2/5/6 -3/5/6 -1/5/6
v -8 4 5
v -7 4 5
v -8 4 4
v -7 4 4
f -4/4/6 -3/4/6 -2/4/6
f -2/4/6 -3/4/6 -1/4/6
