# MagicaVoxel @ ephtracy

# material
mtllib World 5 - Level 27.mtl

# normals
vn -1 0 0
vn 1 0 0
vn 0 0 1
vn 0 0 -1
vn 0 -1 0
vn 0 1 0

# texcoords
vt 0.583984 0.5
vt 0.775391 0.5
vt 0.904297 0.5
vt 0.958984 0.5
vt 0.986328 0.5

# verts
v -8.5 1 0.5
v -8.5 1 -0.5
v -8.5 2 0.5
v -8.5 2 -0.5
f -2/1/1 -3/1/1 -4/1/1
f -1/1/1 -3/1/1 -2/1/1
v -7.5 0 -3.5
v -7.5 0 -4.5
v -7.5 1 -3.5
v -7.5 1 -4.5
f -2/4/1 -3/4/1 -4/4/1
f -1/4/1 -3/4/1 -2/4/1
v -6.5 1 2.5
v -6.5 1 0.5
v -6.5 1 -0.5
v -6.5 1 -2.5
v -6.5 2 2.5
v -6.5 2 0.5
v -6.5 2 -0.5
v -6.5 2 -2.5
f -4/4/1 -7/4/1 -8/4/1
f -3/4/1 -7/4/1 -4/4/1
f -2/4/1 -5/4/1 -6/4/1
f -1/4/1 -5/4/1 -2/4/1
v -5.5 2 7.5
v -5.5 2 6.5
v -5.5 2 4.5
v -5.5 2 3.5
v -5.5 3 7.5
v -5.5 3 6.5
v -5.5 3 4.5
v -5.5 3 3.5
f -4/3/1 -7/3/1 -8/3/1
f -3/3/1 -7/3/1 -4/3/1
f -2/4/1 -5/4/1 -6/4/1
f -1/4/1 -5/4/1 -2/4/1
v -2.5 2 3.5
v -2.5 2 -2.5
v -2.5 3 3.5
v -2.5 3 -2.5
f -2/4/1 -3/4/1 -4/4/1
f -1/4/1 -3/4/1 -2/4/1
v -0.5 1 6.5
v -0.5 1 5.5
v -0.5 1 1.5
v -0.5 1 -1.5
v -0.5 2 6.5
v -0.5 2 5.5
v -0.5 2 1.5
v -0.5 2 -1.5
f -4/4/1 -7/4/1 -8/4/1
f -3/5/1 -6/5/1 -7/5/1
f -3/4/1 -7/4/1 -4/4/1
f -2/3/1 -5/3/1 -6/3/1
f -2/5/1 -6/5/1 -3/5/1
f -1/3/1 -5/3/1 -2/3/1
v 1.5 1 5.5
v 1.5 1 -2.5
v 1.5 1 -4.5
v 1.5 1 -5.5
v 1.5 2 5.5
v 1.5 2 -2.5
v 1.5 4 -4.5
v 1.5 4 -5.5
f -4/4/1 -7/4/1 -8/4/1
f -3/4/1 -7/4/1 -4/4/1
f -2/2/1 -5/2/1 -6/2/1
f -1/2/1 -5/2/1 -2/2/1
v 3.5 1 0.5
v 3.5 1 -1.5
v 3.5 2 0.5
v 3.5 2 -1.5
f -2/4/1 -3/4/1 -4/4/1
f -1/4/1 -3/4/1 -2/4/1
v 4.5 1 5.5
v 4.5 1 4.5
v 4.5 2 5.5
v 4.5 2 4.5
f -2/4/1 -3/4/1 -4/4/1
f -1/4/1 -3/4/1 -2/4/1
v 5.5 1 4.5
v 5.5 1 -4.5
v 5.5 2 4.5
v 5.5 2 -4.5
f -2/4/1 -3/4/1 -4/4/1
f -1/4/1 -3/4/1 -2/4/1
v -5.5 1 2.5
v -5.5 1 -2.5
v -5.5 2 2.5
v -5.5 2 -2.5
f -4/4/2 -3/4/2 -2/4/2
f -2/4/2 -3/4/2 -1/4/2
v -4.5 0 -3.5
v -4.5 0 -4.5
v -4.5 1 -3.5
v -4.5 1 -4.5
f -4/4/2 -3/4/2 -2/4/2
f -2/4/2 -3/4/2 -1/4/2
v -1.5 2 4.5
v -1.5 2 -2.5
v -1.5 3 4.5
v -1.5 3 -2.5
f -4/4/2 -3/4/2 -2/4/2
f -2/4/2 -3/4/2 -1/4/2
v 0.5 1 5.5
v 0.5 1 1.5
v 0.5 1 -1.5
v 0.5 2 5.5
v 0.5 2 1.5
v 0.5 2 -1.5
f -6/5/2 -5/5/2 -3/5/2
f -5/3/2 -4/3/2 -2/3/2
f -3/5/2 -5/5/2 -2/5/2
f -2/3/2 -4/3/2 -1/3/2
v 2.5 1 6.5
v 2.5 1 1.5
v 2.5 1 0.5
v 2.5 1 -1.5
v 2.5 2 6.5
v 2.5 2 1.5
v 2.5 2 0.5
v 2.5 2 -1.5
v 2.5 2 -4.5
v 2.5 2 -5.5
v 2.5 4 -4.5
v 2.5 4 -5.5
f -12/4/2 -11/4/2 -8/4/2
f -8/4/2 -11/4/2 -7/4/2
f -10/4/2 -9/4/2 -6/4/2
f -6/4/2 -9/4/2 -5/4/2
f -4/2/2 -3/2/2 -2/2/2
f -2/2/2 -3/2/2 -1/2/2
v 4.5 1 1.5
v 4.5 1 -2.5
v 4.5 2 1.5
v 4.5 2 -2.5
f -4/4/2 -3/4/2 -2/4/2
f -2/4/2 -3/4/2 -1/4/2
v 6.5 1 5.5
v 6.5 1 -5.5
v 6.5 2 7.5
v 6.5 2 6.5
v 6.5 2 5.5
v 6.5 2 -5.5
v 6.5 3 7.5
v 6.5 3 6.5
f -8/4/2 -7/4/2 -4/4/2
f -4/4/2 -7/4/2 -3/4/2
f -6/5/2 -5/5/2 -2/5/2
f -2/5/2 -5/5/2 -1/5/2
v -5.5 2 7.5
v -5.5 3 7.5
v -2.5 2 7.5
v -2.5 3 7.5
v 6.5 2 7.5
v 6.5 3 7.5
f -4/3/3 -5/3/3 -6/3/3
f -3/3/3 -5/3/3 -4/3/3
f -2/5/3 -3/5/3 -4/5/3
f -1/5/3 -3/5/3 -2/5/3
v -0.5 1 6.5
v -0.5 2 6.5
v 2.5 1 6.5
v 2.5 2 6.5
f -2/4/3 -3/4/3 -4/4/3
f -1/4/3 -3/4/3 -2/4/3
v 4.5 1 5.5
v 4.5 2 5.5
v 6.5 1 5.5
v 6.5 2 5.5
f -2/4/3 -3/4/3 -4/4/3
f -1/4/3 -3/4/3 -2/4/3
v -5.5 2 4.5
v -5.5 3 4.5
v -1.5 2 4.5
v -1.5 3 4.5
f -2/4/3 -3/4/3 -4/4/3
f -1/4/3 -3/4/3 -2/4/3
v -6.5 1 2.5
v -6.5 2 2.5
v -5.5 1 2.5
v -5.5 2 2.5
f -2/4/3 -3/4/3 -4/4/3
f -1/4/3 -3/4/3 -2/4/3
v 2.5 1 1.5
v 2.5 2 1.5
v 4.5 1 1.5
v 4.5 2 1.5
f -2/4/3 -3/4/3 -4/4/3
f -1/4/3 -3/4/3 -2/4/3
v -8.5 1 0.5
v -8.5 2 0.5
v -7.5 1 0.5
v -7.5 2 0.5
v -6.5 1 0.5
v -6.5 2 0.5
f -4/1/3 -5/1/3 -6/1/3
f -3/1/3 -5/1/3 -4/1/3
f -2/4/3 -3/4/3 -4/4/3
f -1/4/3 -3/4/3 -2/4/3
v 2.5 1 -1.5
v 2.5 2 -1.5
v 3.5 1 -1.5
v 3.5 2 -1.5
f -2/4/3 -3/4/3 -4/4/3
f -1/4/3 -3/4/3 -2/4/3
v -7.5 0 -3.5
v -7.5 1 -3.5
v -4.5 0 -3.5
v -4.5 1 -3.5
f -2/4/3 -3/4/3 -4/4/3
f -1/4/3 -3/4/3 -2/4/3
v 1.5 1 -4.5
v 1.5 4 -4.5
v 2.5 1 -4.5
v 2.5 2 -4.5
v 2.5 4 -4.5
v 5.5 1 -4.5
v 5.5 2 -4.5
f -5/2/3 -6/2/3 -7/2/3
f -4/2/3 -6/2/3 -5/2/3
f -3/2/3 -6/2/3 -4/2/3
f -2/4/3 -4/4/3 -5/4/3
f -1/4/3 -4/4/3 -2/4/3
v -5.5 2 6.5
v -5.5 3 6.5
v -2.5 2 6.5
v -2.5 3 6.5
v -0.5 2 6.5
v 2.5 2 6.5
v 6.5 2 6.5
v 6.5 3 6.5
f -8/3/4 -7/3/4 -6/3/4
f -6/3/4 -7/3/4 -5/3/4
f -6/5/4 -5/5/4 -4/5/4
f -4/5/4 -5/5/4 -3/5/4
f -3/5/4 -5/5/4 -2/5/4
f -2/5/4 -5/5/4 -1/5/4
v 0.5 1 5.5
v 0.5 2 5.5
v 1.5 1 5.5
v 1.5 2 5.5
f -4/4/4 -3/4/4 -2/4/4
f -2/4/4 -3/4/4 -1/4/4
v 4.5 1 4.5
v 4.5 2 4.5
v 5.5 1 4.5
v 5.5 2 4.5
f -4/4/4 -3/4/4 -2/4/4
f -2/4/4 -3/4/4 -1/4/4
v -5.5 2 3.5
v -5.5 3 3.5
v -2.5 2 3.5
v -2.5 3 3.5
f -4/4/4 -3/4/4 -2/4/4
f -2/4/4 -3/4/4 -1/4/4
v 2.5 1 0.5
v 2.5 2 0.5
v 3.5 1 0.5
v 3.5 2 0.5
f -4/4/4 -3/4/4 -2/4/4
f -2/4/4 -3/4/4 -1/4/4
v -8.5 1 -0.5
v -8.5 2 -0.5
v -7.5 1 -0.5
v -7.5 2 -0.5
v -6.5 1 -0.5
v -6.5 2 -0.5
f -6/1/4 -5/1/4 -4/1/4
f -4/1/4 -5/1/4 -3/1/4
f -4/4/4 -3/4/4 -2/4/4
f -2/4/4 -3/4/4 -1/4/4
v -0.5 1 -1.5
v -0.5 2 -1.5
v 0.5 1 -1.5
v 0.5 2 -1.5
f -4/3/4 -3/3/4 -2/3/4
f -2/3/4 -3/3/4 -1/3/4
v -6.5 1 -2.5
v -6.5 2 -2.5
v -5.5 1 -2.5
v -5.5 2 -2.5
v -2.5 2 -2.5
v -2.5 3 -2.5
v -1.5 2 -2.5
v -1.5 3 -2.5
v 1.5 1 -2.5
v 1.5 2 -2.5
v 4.5 1 -2.5
v 4.5 2 -2.5
f -12/4/4 -11/4/4 -10/4/4
f -10/4/4 -11/4/4 -9/4/4
f -8/4/4 -7/4/4 -6/4/4
f -6/4/4 -7/4/4 -5/4/4
f -4/4/4 -3/4/4 -2/4/4
f -2/4/4 -3/4/4 -1/4/4
v -7.5 0 -4.5
v -7.5 1 -4.5
v -4.5 0 -4.5
v -4.5 1 -4.5
f -4/4/4 -3/4/4 -2/4/4
f -2/4/4 -3/4/4 -1/4/4
v 1.5 1 -5.5
v 1.5 4 -5.5
v 2.5 1 -5.5
v 2.5 2 -5.5
v 2.5 4 -5.5
v 6.5 1 -5.5
v 6.5 2 -5.5
f -7/2/4 -6/2/4 -5/2/4
f -5/2/4 -6/2/4 -4/2/4
f -4/2/4 -6/2/4 -3/2/4
f -5/4/4 -4/4/4 -2/4/4
f -2/4/4 -4/4/4 -1/4/4
v -7.5 0 -3.5
v -4.5 0 -3.5
v -7.5 0 -4.5
v -4.5 0 -4.5
f -2/4/5 -3/4/5 -4/4/5
f -1/4/5 -3/4/5 -2/4/5
v -0.5 1 6.5
v 2.5 1 6.5
v -0.5 1 5.5
v 0.5 1 5.5
v 1.5 1 5.5
v 4.5 1 5.5
v 6.5 1 5.5
v 4.5 1 4.5
v 5.5 1 4.5
v -6.5 1 2.5
v -5.5 1 2.5
v -0.5 1 1.5
v 0.5 1 1.5
v 2.5 1 1.5
v 4.5 1 1.5
v -8.5 1 0.5
v -7.5 1 0.5
v -6.5 1 0.5
v 2.5 1 0.5
v 3.5 1 0.5
v -8.5 1 -0.5
v -7.5 1 -0.5
v -6.5 1 -0.5
v -0.5 1 -1.5
v 0.5 1 -1.5
v 2.5 1 -1.5
v 3.5 1 -1.5
v -6.5 1 -2.5
v -5.5 1 -2.5
v 1.5 1 -2.5
v 4.5 1 -2.5
v 1.5 1 -4.5
v 2.5 1 -4.5
v 5.5 1 -4.5
v 1.5 1 -5.5
v 2.5 1 -5.5
v 6.5 1 -5.5
f -35/4/5 -36/4/5 -37/4/5
f -34/4/5 -36/4/5 -35/4/5
f -33/4/5 -36/4/5 -34/4/5
f -30/4/5 -31/4/5 -32/4/5
f -29/4/5 -31/4/5 -30/4/5
f -26/5/5 -34/5/5 -35/5/5
f -25/5/5 -34/5/5 -26/5/5
f -24/4/5 -36/4/5 -33/4/5
f -20/4/5 -27/4/5 -28/4/5
f -19/4/5 -24/4/5 -33/4/5
f -19/4/5 -23/4/5 -24/4/5
f -18/4/5 -23/4/5 -19/4/5
f -17/1/5 -21/1/5 -22/1/5
f -16/4/5 -20/4/5 -21/4/5
f -16/1/5 -21/1/5 -17/1/5
f -15/4/5 -27/4/5 -20/4/5
f -15/4/5 -20/4/5 -16/4/5
f -14/3/5 -25/3/5 -26/3/5
f -13/3/5 -25/3/5 -14/3/5
f -12/4/5 -19/4/5 -33/4/5
f -11/4/5 -23/4/5 -18/4/5
f -10/4/5 -27/4/5 -15/4/5
f -9/4/5 -27/4/5 -10/4/5
f -8/4/5 -12/4/5 -33/4/5
f -8/4/5 -11/4/5 -12/4/5
f -7/4/5 -23/4/5 -11/4/5
f -7/4/5 -11/4/5 -8/4/5
f -4/4/5 -31/4/5 -29/4/5
f -3/2/5 -5/2/5 -6/2/5
f -2/4/5 -4/4/5 -5/4/5
f -2/2/5 -5/2/5 -3/2/5
f -1/4/5 -31/4/5 -4/4/5
f -1/4/5 -4/4/5 -2/4/5
v -5.5 2 7.5
v -2.5 2 7.5
v 6.5 2 7.5
v -5.5 2 6.5
v -2.5 2 6.5
v -0.5 2 6.5
v 2.5 2 6.5
v 6.5 2 6.5
v -5.5 2 4.5
v -1.5 2 4.5
v -5.5 2 3.5
v -2.5 2 3.5
v -2.5 2 -2.5
v -1.5 2 -2.5
f -11/3/5 -13/3/5 -14/3/5
f -10/5/5 -12/5/5 -13/5/5
f -10/3/5 -13/3/5 -11/3/5
f -9/5/5 -12/5/5 -10/5/5
f -8/5/5 -12/5/5 -9/5/5
f -7/5/5 -12/5/5 -8/5/5
f -4/4/5 -5/4/5 -6/4/5
f -3/4/5 -5/4/5 -4/4/5
f -2/4/5 -5/4/5 -3/4/5
f -1/4/5 -5/4/5 -2/4/5
v -7.5 1 -3.5
v -4.5 1 -3.5
v -7.5 1 -4.5
v -4.5 1 -4.5
f -4/4/6 -3/4/6 -2/4/6
f -2/4/6 -3/4/6 -1/4/6
v -0.5 2 6.5
v 2.5 2 6.5
v -0.5 2 5.5
v 0.5 2 5.5
v 1.5 2 5.5
v 4.5 2 5.5
v 6.5 2 5.5
v 4.5 2 4.5
v 5.5 2 4.5
v -6.5 2 2.5
v -5.5 2 2.5
v -0.5 2 1.5
v 0.5 2 1.5
v 2.5 2 1.5
v 4.5 2 1.5
v -8.5 2 0.5
v -7.5 2 0.5
v -6.5 2 0.5
v 2.5 2 0.5
v 3.5 2 0.5
v -8.5 2 -0.5
v -7.5 2 -0.5
v -6.5 2 -0.5
v -0.5 2 -1.5
v 0.5 2 -1.5
v 2.5 2 -1.5
v 3.5 2 -1.5
v -6.5 2 -2.5
v -5.5 2 -2.5
v 1.5 2 -2.5
v 4.5 2 -2.5
v 2.5 2 -4.5
v 5.5 2 -4.5
v 2.5 2 -5.5
v 6.5 2 -5.5
f -35/4/6 -34/4/6 -33/4/6
f -33/4/6 -34/4/6 -32/4/6
f -32/4/6 -34/4/6 -31/4/6
f -30/4/6 -29/4/6 -28/4/6
f -28/4/6 -29/4/6 -27/4/6
f -33/5/6 -32/5/6 -24/5/6
f -24/5/6 -32/5/6 -23/5/6
f -31/4/6 -34/4/6 -22/4/6
f -26/4/6 -25/4/6 -18/4/6
f -31/4/6 -22/4/6 -17/4/6
f -22/4/6 -21/4/6 -17/4/6
f -17/4/6 -21/4/6 -16/4/6
f -20/1/6 -19/1/6 -15/1/6
f -19/4/6 -18/4/6 -14/4/6
f -15/1/6 -19/1/6 -14/1/6
f -18/4/6 -25/4/6 -13/4/6
f -14/4/6 -18/4/6 -13/4/6
f -24/3/6 -23/3/6 -12/3/6
f -12/3/6 -23/3/6 -11/3/6
f -31/4/6 -17/4/6 -10/4/6
f -16/4/6 -21/4/6 -9/4/6
f -13/4/6 -25/4/6 -8/4/6
f -8/4/6 -25/4/6 -7/4/6
f -31/4/6 -10/4/6 -6/4/6
f -10/4/6 -9/4/6 -6/4/6
f -9/4/6 -21/4/6 -5/4/6
f -6/4/6 -9/4/6 -5/4/6
f -27/4/6 -29/4/6 -3/4/6
f -4/4/6 -3/4/6 -2/4/6
f -3/4/6 -29/4/6 -1/4/6
f -2/4/6 -3/4/6 -1/4/6
v -5.5 3 7.5
v -2.5 3 7.5
v 6.5 3 7.5
v -5.5 3 6.5
v -2.5 3 6.5
v 6.5 3 6.5
v -5.5 3 4.5
v -1.5 3 4.5
v -5.5 3 3.5
v -2.5 3 3.5
v -2.5 3 -2.5
v -1.5 3 -2.5
f -12/3/6 -11/3/6 -9/3/6
f -11/5/6 -10/5/6 -8/5/6
f -9/3/6 -11/3/6 -8/3/6
f -8/5/6 -10/5/6 -7/5/6
f -6/4/6 -5/4/6 -4/4/6
f -4/4/6 -5/4/6 -3/4/6
f -3/4/6 -5/4/6 -2/4/6
f -2/4/6 -5/4/6 -1/4/6
v 1.5 4 -4.5
v 2.5 4 -4.5
v 1.5 4 -5.5
v 2.5 4 -5.5
f -4/2/6 -3/2/6 -2/2/6
f -2/2/6 -3/2/6 -1/2/6
