# MagicaVoxel @ ephtracy

# material
mtllib World 5 - Level 28.mtl

# normals
vn -1 0 0
vn 1 0 0
vn 0 0 1
vn 0 0 -1
vn 0 -1 0
vn 0 1 0

# texcoords
vt 0.583984 0.5
vt 0.775391 0.5
vt 0.904297 0.5
vt 0.958984 0.5
vt 0.986328 0.5

# verts
v -8.5 1 7
v -8.5 1 2
v -8.5 2 7
v -8.5 2 2
v -8.5 3 -3
v -8.5 3 -4
v -8.5 4 -3
v -8.5 4 -4
f -6/4/1 -7/4/1 -8/4/1
f -5/4/1 -7/4/1 -6/4/1
f -2/1/1 -3/1/1 -4/1/1
f -1/1/1 -3/1/1 -2/1/1
v -7.5 2 -0
v -7.5 2 -1
v -7.5 3 -0
v -7.5 3 -1
f -2/4/1 -3/4/1 -4/4/1
f -1/4/1 -3/4/1 -2/4/1
v -6.5 2 -2
v -6.5 2 -5
v -6.5 3 -2
v -6.5 3 -5
f -2/4/1 -3/4/1 -4/4/1
f -1/4/1 -3/4/1 -2/4/1
v -5.5 1 6
v -5.5 1 4
v -5.5 1 3
v -5.5 1 1
v -5.5 2 7
v -5.5 2 6
v -5.5 2 4
v -5.5 2 3
v -5.5 2 1
v -5.5 4 7
v -5.5 4 6
f -6/5/1 -10/5/1 -11/5/1
f -5/5/1 -10/5/1 -6/5/1
f -4/3/1 -8/3/1 -9/3/1
f -3/3/1 -8/3/1 -4/3/1
f -2/2/1 -6/2/1 -7/2/1
f -1/2/1 -6/2/1 -2/2/1
v -4.5 1 -3
v -4.5 1 -4
v -4.5 2 -3
v -4.5 2 -4
f -2/4/1 -3/4/1 -4/4/1
f -1/4/1 -3/4/1 -2/4/1
v -3.5 3 7
v -3.5 3 6
v -3.5 4 7
v -3.5 4 6
f -2/5/1 -3/5/1 -4/5/1
f -1/5/1 -3/5/1 -2/5/1
v -1.5 1 -2
v -1.5 1 -3
v -1.5 2 -2
v -1.5 2 -3
f -2/4/1 -3/4/1 -4/4/1
f -1/4/1 -3/4/1 -2/4/1
v -0.5 1 -0
v -0.5 1 -2
v -0.5 2 -0
v -0.5 2 -2
f -2/4/1 -3/4/1 -4/4/1
f -1/4/1 -3/4/1 -2/4/1
v 1.5 0 -1
v 1.5 0 -2
v 1.5 1 -1
v 1.5 1 -2
f -2/4/1 -3/4/1 -4/4/1
f -1/4/1 -3/4/1 -2/4/1
v 2.5 1 4
v 2.5 1 3
v 2.5 2 4
v 2.5 2 3
f -2/4/1 -3/4/1 -4/4/1
f -1/4/1 -3/4/1 -2/4/1
v 3.5 0 2
v 3.5 0 -1
v 3.5 1 2
v 3.5 1 -1
f -2/4/1 -3/4/1 -4/4/1
f -1/4/1 -3/4/1 -2/4/1
v -7.5 1 6
v -7.5 1 4
v -7.5 1 3
v -7.5 1 2
v -7.5 2 6
v -7.5 2 4
v -7.5 2 3
v -7.5 2 2
v -7.5 3 -3
v -7.5 3 -4
v -7.5 4 -3
v -7.5 4 -4
f -12/4/2 -11/4/2 -8/4/2
f -8/4/2 -11/4/2 -7/4/2
f -10/4/2 -9/4/2 -6/4/2
f -6/4/2 -9/4/2 -5/4/2
f -4/1/2 -3/1/2 -2/1/2
f -2/1/2 -3/1/2 -1/1/2
v -5.5 2 -2
v -5.5 2 -5
v -5.5 3 -2
v -5.5 3 -5
f -4/4/2 -3/4/2 -2/4/2
f -2/4/2 -3/4/2 -1/4/2
v -4.5 1 7
v -4.5 1 6
v -4.5 1 4
v -4.5 1 3
v -4.5 1 1
v -4.5 2 6
v -4.5 2 4
v -4.5 2 3
v -4.5 2 1
v -4.5 4 7
v -4.5 4 6
f -11/2/2 -10/2/2 -6/2/2
f -10/5/2 -9/5/2 -6/5/2
f -6/5/2 -9/5/2 -5/5/2
f -8/3/2 -7/3/2 -4/3/2
f -4/3/2 -7/3/2 -3/3/2
f -11/2/2 -6/2/2 -2/2/2
f -2/2/2 -6/2/2 -1/2/2
v -3.5 2 -0
v -3.5 2 -1
v -3.5 3 -0
v -3.5 3 -1
f -4/4/2 -3/4/2 -2/4/2
f -2/4/2 -3/4/2 -1/4/2
v -2.5 1 4
v -2.5 1 3
v -2.5 2 4
v -2.5 2 3
f -4/3/2 -3/3/2 -2/3/2
f -2/3/2 -3/3/2 -1/3/2
v -0.5 1 -3
v -0.5 1 -4
v -0.5 2 -3
v -0.5 2 -4
f -4/4/2 -3/4/2 -2/4/2
f -2/4/2 -3/4/2 -1/4/2
v 0.5 1 -0
v 0.5 1 -3
v 0.5 2 -0
v 0.5 2 -3
f -4/4/2 -3/4/2 -2/4/2
f -2/4/2 -3/4/2 -1/4/2
v 4.5 0 2
v 4.5 0 -2
v 4.5 1 2
v 4.5 1 -2
v 4.5 3 7
v 4.5 3 6
v 4.5 4 7
v 4.5 4 6
f -8/4/2 -7/4/2 -6/4/2
f -6/4/2 -7/4/2 -5/4/2
f -4/3/2 -3/3/2 -2/3/2
f -2/3/2 -3/3/2 -1/3/2
v 6.5 1 4
v 6.5 1 3
v 6.5 2 4
v 6.5 2 3
f -4/4/2 -3/4/2 -2/4/2
f -2/4/2 -3/4/2 -1/4/2
v -8.5 1 7
v -8.5 2 7
v -5.5 1 7
v -5.5 2 7
v -5.5 4 7
v -4.5 1 7
v -4.5 4 7
v -3.5 3 7
v -3.5 4 7
v -0.5 3 7
v -0.5 4 7
v 4.5 3 7
v 4.5 4 7
f -11/4/3 -12/4/3 -13/4/3
f -10/4/3 -12/4/3 -11/4/3
f -8/2/3 -10/2/3 -11/2/3
f -8/2/3 -9/2/3 -10/2/3
f -7/2/3 -9/2/3 -8/2/3
f -4/5/3 -5/5/3 -6/5/3
f -3/5/3 -5/5/3 -4/5/3
f -2/3/3 -3/3/3 -4/3/3
f -1/3/3 -3/3/3 -2/3/3
v -7.5 1 4
v -7.5 2 4
v -5.5 1 4
v -5.5 2 4
v -4.5 1 4
v -4.5 2 4
v -2.5 1 4
v -2.5 2 4
v 2.5 1 4
v 2.5 2 4
v 6.5 1 4
v 6.5 2 4
f -10/5/3 -11/5/3 -12/5/3
f -9/5/3 -11/5/3 -10/5/3
f -6/3/3 -7/3/3 -8/3/3
f -5/3/3 -7/3/3 -6/3/3
f -2/4/3 -3/4/3 -4/4/3
f -1/4/3 -3/4/3 -2/4/3
v 3.5 0 2
v 3.5 1 2
v 4.5 0 2
v 4.5 1 2
f -2/4/3 -3/4/3 -4/4/3
f -1/4/3 -3/4/3 -2/4/3
v -7.5 2 -0
v -7.5 3 -0
v -3.5 2 -0
v -3.5 3 -0
v -0.5 1 -0
v -0.5 2 -0
v 0.5 1 -0
v 0.5 2 -0
f -6/4/3 -7/4/3 -8/4/3
f -5/4/3 -7/4/3 -6/4/3
f -2/4/3 -3/4/3 -4/4/3
f -1/4/3 -3/4/3 -2/4/3
v 1.5 0 -1
v 1.5 1 -1
v 3.5 0 -1
v 3.5 1 -1
f -2/4/3 -3/4/3 -4/4/3
f -1/4/3 -3/4/3 -2/4/3
v -6.5 2 -2
v -6.5 3 -2
v -5.5 2 -2
v -5.5 3 -2
v -1.5 1 -2
v -1.5 2 -2
v -0.5 1 -2
v -0.5 2 -2
f -6/4/3 -7/4/3 -8/4/3
f -5/4/3 -7/4/3 -6/4/3
f -2/4/3 -3/4/3 -4/4/3
f -1/4/3 -3/4/3 -2/4/3
v -8.5 3 -3
v -8.5 4 -3
v -7.5 3 -3
v -7.5 4 -3
v -4.5 1 -3
v -4.5 2 -3
v -1.5 1 -3
v -1.5 2 -3
f -6/1/3 -7/1/3 -8/1/3
f -5/1/3 -7/1/3 -6/1/3
f -2/4/3 -3/4/3 -4/4/3
f -1/4/3 -3/4/3 -2/4/3
v -7.5 1 6
v -7.5 2 6
v -5.5 1 6
v -5.5 2 6
v -5.5 4 6
v -4.5 2 6
v -4.5 4 6
v -3.5 3 6
v -3.5 4 6
v -0.5 3 6
v -0.5 4 6
v 4.5 3 6
v 4.5 4 6
f -13/4/4 -12/4/4 -11/4/4
f -11/4/4 -12/4/4 -10/4/4
f -10/2/4 -9/2/4 -8/2/4
f -8/2/4 -9/2/4 -7/2/4
f -6/5/4 -5/5/4 -4/5/4
f -4/5/4 -5/5/4 -3/5/4
f -4/3/4 -3/3/4 -2/3/4
f -2/3/4 -3/3/4 -1/3/4
v -7.5 1 3
v -7.5 2 3
v -5.5 1 3
v -5.5 2 3
v -4.5 1 3
v -4.5 2 3
v -2.5 1 3
v -2.5 2 3
v 2.5 1 3
v 2.5 2 3
v 6.5 1 3
v 6.5 2 3
f -12/5/4 -11/5/4 -10/5/4
f -10/5/4 -11/5/4 -9/5/4
f -8/3/4 -7/3/4 -6/3/4
f -6/3/4 -7/3/4 -5/3/4
f -4/4/4 -3/4/4 -2/4/4
f -2/4/4 -3/4/4 -1/4/4
v -8.5 1 2
v -8.5 2 2
v -7.5 1 2
v -7.5 2 2
f -4/4/4 -3/4/4 -2/4/4
f -2/4/4 -3/4/4 -1/4/4
v -5.5 1 1
v -5.5 2 1
v -4.5 1 1
v -4.5 2 1
f -4/3/4 -3/3/4 -2/3/4
f -2/3/4 -3/3/4 -1/3/4
v -7.5 2 -1
v -7.5 3 -1
v -3.5 2 -1
v -3.5 3 -1
f -4/4/4 -3/4/4 -2/4/4
f -2/4/4 -3/4/4 -1/4/4
v 1.5 0 -2
v 1.5 1 -2
v 4.5 0 -2
v 4.5 1 -2
f -4/4/4 -3/4/4 -2/4/4
f -2/4/4 -3/4/4 -1/4/4
v -0.5 1 -3
v -0.5 2 -3
v 0.5 1 -3
v 0.5 2 -3
f -4/4/4 -3/4/4 -2/4/4
f -2/4/4 -3/4/4 -1/4/4
v -8.5 3 -4
v -8.5 4 -4
v -7.5 3 -4
v -7.5 4 -4
v -4.5 1 -4
v -4.5 2 -4
v -0.5 1 -4
v -0.5 2 -4
f -8/1/4 -7/1/4 -6/1/4
f -6/1/4 -7/1/4 -5/1/4
f -4/4/4 -3/4/4 -2/4/4
f -2/4/4 -3/4/4 -1/4/4
v -6.5 2 -5
v -6.5 3 -5
v -5.5 2 -5
v -5.5 3 -5
f -4/4/4 -3/4/4 -2/4/4
f -2/4/4 -3/4/4 -1/4/4
v 3.5 0 2
v 4.5 0 2
v 1.5 0 -1
v 3.5 0 -1
v 1.5 0 -2
v 4.5 0 -2
f -3/4/5 -5/4/5 -6/4/5
f -2/4/5 -3/4/5 -4/4/5
f -1/4/5 -5/4/5 -3/4/5
f -1/4/5 -3/4/5 -2/4/5
v -8.5 1 7
v -5.5 1 7
v -4.5 1 7
v -7.5 1 6
v -5.5 1 6
v -4.5 1 6
v -7.5 1 4
v -5.5 1 4
v -4.5 1 4
v -2.5 1 4
v 2.5 1 4
v 6.5 1 4
v -7.5 1 3
v -5.5 1 3
v -4.5 1 3
v -2.5 1 3
v 2.5 1 3
v 6.5 1 3
v -8.5 1 2
v -7.5 1 2
v -5.5 1 1
v -4.5 1 1
v -0.5 1 -0
v 0.5 1 -0
v -1.5 1 -2
v -0.5 1 -2
v -4.5 1 -3
v -1.5 1 -3
v -0.5 1 -3
v 0.5 1 -3
v -4.5 1 -4
v -0.5 1 -4
f -29/4/5 -31/4/5 -32/4/5
f -28/2/5 -30/2/5 -31/2/5
f -28/4/5 -31/4/5 -29/4/5
f -27/2/5 -30/2/5 -28/2/5
f -26/4/5 -29/4/5 -32/4/5
f -25/5/5 -27/5/5 -28/5/5
f -24/5/5 -27/5/5 -25/5/5
f -20/4/5 -26/4/5 -32/4/5
f -20/5/5 -25/5/5 -26/5/5
f -19/3/5 -24/3/5 -25/3/5
f -19/5/5 -25/5/5 -20/5/5
f -19/3/5 -23/3/5 -24/3/5
f -18/3/5 -23/3/5 -19/3/5
f -17/3/5 -23/3/5 -18/3/5
f -16/4/5 -21/4/5 -22/4/5
f -15/4/5 -21/4/5 -16/4/5
f -14/4/5 -20/4/5 -32/4/5
f -13/4/5 -20/4/5 -14/4/5
f -12/3/5 -18/3/5 -19/3/5
f -11/3/5 -18/3/5 -12/3/5
f -7/4/5 -9/4/5 -10/4/5
f -5/4/5 -7/4/5 -8/4/5
f -4/4/5 -9/4/5 -7/4/5
f -4/4/5 -7/4/5 -5/4/5
f -3/4/5 -9/4/5 -4/4/5
f -2/4/5 -5/4/5 -6/4/5
f -2/4/5 -4/4/5 -5/4/5
f -1/4/5 -4/4/5 -2/4/5
v -7.5 2 -0
v -3.5 2 -0
v -7.5 2 -1
v -3.5 2 -1
v -6.5 2 -2
v -5.5 2 -2
v -6.5 2 -5
v -5.5 2 -5
f -6/4/5 -7/4/5 -8/4/5
f -5/4/5 -7/4/5 -6/4/5
f -2/4/5 -3/4/5 -4/4/5
f -1/4/5 -3/4/5 -2/4/5
v -3.5 3 7
v -0.5 3 7
v 4.5 3 7
v -3.5 3 6
v -0.5 3 6
v 4.5 3 6
v -8.5 3 -3
v -7.5 3 -3
v -8.5 3 -4
v -7.5 3 -4
f -7/5/5 -9/5/5 -10/5/5
f -6/3/5 -8/3/5 -9/3/5
f -6/5/5 -9/5/5 -7/5/5
f -5/3/5 -8/3/5 -6/3/5
f -2/1/5 -3/1/5 -4/1/5
f -1/1/5 -3/1/5 -2/1/5
v 3.5 1 2
v 4.5 1 2
v 1.5 1 -1
v 3.5 1 -1
v 1.5 1 -2
v 4.5 1 -2
f -6/4/6 -5/4/6 -3/4/6
f -4/4/6 -3/4/6 -2/4/6
f -3/4/6 -5/4/6 -1/4/6
f -2/4/6 -3/4/6 -1/4/6
v -8.5 2 7
v -5.5 2 7
v -7.5 2 6
v -5.5 2 6
v -4.5 2 6
v -7.5 2 4
v -5.5 2 4
v -4.5 2 4
v -2.5 2 4
v 2.5 2 4
v 6.5 2 4
v -7.5 2 3
v -5.5 2 3
v -4.5 2 3
v -2.5 2 3
v 2.5 2 3
v 6.5 2 3
v -8.5 2 2
v -7.5 2 2
v -5.5 2 1
v -4.5 2 1
v -0.5 2 -0
v 0.5 2 -0
v -1.5 2 -2
v -0.5 2 -2
v -4.5 2 -3
v -1.5 2 -3
v -0.5 2 -3
v 0.5 2 -3
v -4.5 2 -4
v -0.5 2 -4
f -31/4/6 -30/4/6 -29/4/6
f -29/4/6 -30/4/6 -28/4/6
f -31/4/6 -29/4/6 -26/4/6
f -28/5/6 -27/5/6 -25/5/6
f -25/5/6 -27/5/6 -24/5/6
f -31/4/6 -26/4/6 -20/4/6
f -26/5/6 -25/5/6 -20/5/6
f -24/3/6 -23/3/6 -19/3/6
f -20/5/6 -25/5/6 -19/5/6
f -25/3/6 -24/3/6 -19/3/6
f -19/3/6 -23/3/6 -18/3/6
f -18/3/6 -23/3/6 -17/3/6
f -22/4/6 -21/4/6 -16/4/6
f -16/4/6 -21/4/6 -15/4/6
f -31/4/6 -20/4/6 -14/4/6
f -14/4/6 -20/4/6 -13/4/6
f -19/3/6 -18/3/6 -12/3/6
f -12/3/6 -18/3/6 -11/3/6
f -10/4/6 -9/4/6 -7/4/6
f -8/4/6 -7/4/6 -5/4/6
f -7/4/6 -9/4/6 -4/4/6
f -5/4/6 -7/4/6 -4/4/6
f -4/4/6 -9/4/6 -3/4/6
f -6/4/6 -5/4/6 -2/4/6
f -5/4/6 -4/4/6 -2/4/6
f -2/4/6 -4/4/6 -1/4/6
v -7.5 3 -0
v -3.5 3 -0
v -7.5 3 -1
v -3.5 3 -1
v -6.5 3 -2
v -5.5 3 -2
v -6.5 3 -5
v -5.5 3 -5
f -8/4/6 -7/4/6 -6/4/6
f -6/4/6 -7/4/6 -5/4/6
f -4/4/6 -3/4/6 -2/4/6
f -2/4/6 -3/4/6 -1/4/6
v -5.5 4 7
v -4.5 4 7
v -3.5 4 7
v -0.5 4 7
v 4.5 4 7
v -5.5 4 6
v -4.5 4 6
v -3.5 4 6
v -0.5 4 6
v 4.5 4 6
v -8.5 4 -3
v -7.5 4 -3
v -8.5 4 -4
v -7.5 4 -4
f -14/2/6 -13/2/6 -9/2/6
f -9/2/6 -13/2/6 -8/2/6
f -12/5/6 -11/5/6 -7/5/6
f -11/3/6 -10/3/6 -6/3/6
f -7/5/6 -11/5/6 -6/5/6
f -6/3/6 -10/3/6 -5/3/6
f -4/1/6 -3/1/6 -2/1/6
f -2/1/6 -3/1/6 -1/1/6
