# MagicaVoxel @ ephtracy

# material
mtllib Level 4 - World 1.mtl

# normals
vn -1 0 0
vn 1 0 0
vn 0 0 1
vn 0 0 -1
vn 0 -1 0
vn 0 1 0

# texcoords
vt 0.583984 0.5
vt 0.771484 0.5
vt 0.904297 0.5
vt 0.958984 0.5
vt 0.986328 0.5

# verts
v -8 0 -4
v -8 0 -5
v -8 1 -4
v -8 1 -5
f -2/1/1 -3/1/1 -4/1/1
f -1/1/1 -3/1/1 -2/1/1
v -6 1 3
v -6 1 -1
v -6 2 3
v -6 2 -1
f -2/4/1 -3/4/1 -4/4/1
f -1/4/1 -3/4/1 -2/4/1
v -3 1 -1
v -3 1 -5
v -3 2 -1
v -3 2 -5
f -2/4/1 -3/4/1 -4/4/1
f -1/4/1 -3/4/1 -2/4/1
v -1 2 4
v -1 2 -0
v -1 3 4
v -1 3 -0
f -2/4/1 -3/4/1 -4/4/1
f -1/4/1 -3/4/1 -2/4/1
v 2 2 6
v 2 2 1
v 2 3 6
v 2 3 1
f -2/4/1 -3/4/1 -4/4/1
f -1/4/1 -3/4/1 -2/4/1
v 4 2 7
v 4 2 6
v 4 2 5
v 4 2 2
v 4 3 7
v 4 3 6
v 4 3 5
v 4 3 2
f -4/5/1 -7/5/1 -8/5/1
f -3/5/1 -7/5/1 -4/5/1
f -2/3/1 -5/3/1 -6/3/1
f -1/3/1 -5/3/1 -2/3/1
v 5 3 3
v 5 3 2
v 5 5 3
v 5 5 2
f -2/2/1 -3/2/1 -4/2/1
f -1/2/1 -3/2/1 -2/2/1
v -5 1 2
v -5 1 -0
v -5 2 2
v -5 2 -0
f -4/4/2 -3/4/2 -2/4/2
f -2/4/2 -3/4/2 -1/4/2
v -4 0 -4
v -4 0 -5
v -4 1 -4
v -4 1 -5
f -4/4/2 -3/4/2 -2/4/2
f -2/4/2 -3/4/2 -1/4/2
v -2 1 3
v -2 1 2
v -2 1 -0
v -2 1 -5
v -2 2 3
v -2 2 2
v -2 2 -0
v -2 2 -5
f -8/4/2 -7/4/2 -4/4/2
f -4/4/2 -7/4/2 -3/4/2
f -6/4/2 -5/4/2 -2/4/2
f -2/4/2 -5/4/2 -1/4/2
v 0 2 4
v 0 2 1
v 0 3 4
v 0 3 1
f -4/4/2 -3/4/2 -2/4/2
f -2/4/2 -3/4/2 -1/4/2
v 3 2 5
v 3 2 -0
v 3 3 5
v 3 3 -0
f -4/4/2 -3/4/2 -2/4/2
f -2/4/2 -3/4/2 -1/4/2
v 5 2 7
v 5 2 5
v 5 2 4
v 5 3 7
v 5 3 5
v 5 3 4
f -6/5/2 -5/5/2 -3/5/2
f -5/3/2 -4/3/2 -2/3/2
f -3/5/2 -5/5/2 -2/5/2
f -2/3/2 -4/3/2 -1/3/2
v 6 2 4
v 6 2 2
v 6 3 4
v 6 3 3
v 6 3 2
v 6 5 3
v 6 5 2
f -7/4/2 -6/4/2 -5/4/2
f -5/4/2 -6/4/2 -4/4/2
f -4/4/2 -6/4/2 -3/4/2
f -4/2/2 -3/2/2 -2/2/2
f -2/2/2 -3/2/2 -1/2/2
v 4 2 7
v 4 3 7
v 5 2 7
v 5 3 7
f -2/5/3 -3/5/3 -4/5/3
f -1/5/3 -3/5/3 -2/5/3
v 2 2 6
v 2 3 6
v 4 2 6
v 4 3 6
f -2/4/3 -3/4/3 -4/4/3
f -1/4/3 -3/4/3 -2/4/3
v -1 2 4
v -1 3 4
v 0 2 4
v 0 3 4
v 5 2 4
v 5 3 4
v 6 2 4
v 6 3 4
f -6/4/3 -7/4/3 -8/4/3
f -5/4/3 -7/4/3 -6/4/3
f -2/4/3 -3/4/3 -4/4/3
f -1/4/3 -3/4/3 -2/4/3
v -6 1 3
v -6 2 3
v -2 1 3
v -2 2 3
v 5 3 3
v 5 5 3
v 6 3 3
v 6 5 3
f -6/4/3 -7/4/3 -8/4/3
f -5/4/3 -7/4/3 -6/4/3
f -2/2/3 -3/2/3 -4/2/3
f -1/2/3 -3/2/3 -2/2/3
v 0 2 1
v 0 3 1
v 2 2 1
v 2 3 1
f -2/4/3 -3/4/3 -4/4/3
f -1/4/3 -3/4/3 -2/4/3
v -5 1 -0
v -5 2 -0
v -2 1 -0
v -2 2 -0
f -2/4/3 -3/4/3 -4/4/3
f -1/4/3 -3/4/3 -2/4/3
v -8 0 -4
v -8 1 -4
v -7 0 -4
v -7 1 -4
v -4 0 -4
v -4 1 -4
f -4/1/3 -5/1/3 -6/1/3
f -3/1/3 -5/1/3 -4/1/3
f -2/4/3 -3/4/3 -4/4/3
f -1/4/3 -3/4/3 -2/4/3
v 3 2 5
v 3 3 5
v 4 2 5
v 4 3 5
f -4/4/4 -3/4/4 -2/4/4
f -2/4/4 -3/4/4 -1/4/4
v -5 1 2
v -5 2 2
v -2 1 2
v -2 2 2
v 4 2 2
v 4 3 2
v 5 2 2
v 5 3 2
v 5 5 2
v 6 2 2
v 6 3 2
v 6 5 2
f -12/4/4 -11/4/4 -10/4/4
f -10/4/4 -11/4/4 -9/4/4
f -8/3/4 -7/3/4 -6/3/4
f -6/3/4 -7/3/4 -5/3/4
f -6/4/4 -5/4/4 -3/4/4
f -5/2/4 -4/2/4 -2/2/4
f -3/4/4 -5/4/4 -2/4/4
f -2/2/4 -4/2/4 -1/2/4
v -1 2 -0
v -1 3 -0
v 3 2 -0
v 3 3 -0
f -4/4/4 -3/4/4 -2/4/4
f -2/4/4 -3/4/4 -1/4/4
v -6 1 -1
v -6 2 -1
v -3 1 -1
v -3 2 -1
f -4/4/4 -3/4/4 -2/4/4
f -2/4/4 -3/4/4 -1/4/4
v -8 0 -5
v -8 1 -5
v -7 0 -5
v -7 1 -5
v -4 0 -5
v -4 1 -5
v -3 1 -5
v -3 2 -5
v -2 1 -5
v -2 2 -5
f -10/1/4 -9/1/4 -8/1/4
f -8/1/4 -9/1/4 -7/1/4
f -8/4/4 -7/4/4 -6/4/4
f -6/4/4 -7/4/4 -5/4/4
f -4/4/4 -3/4/4 -2/4/4
f -2/4/4 -3/4/4 -1/4/4
v -8 0 -4
v -7 0 -4
v -4 0 -4
v -8 0 -5
v -7 0 -5
v -4 0 -5
f -3/1/5 -5/1/5 -6/1/5
f -2/4/5 -4/4/5 -5/4/5
f -2/1/5 -5/1/5 -3/1/5
f -1/4/5 -4/4/5 -2/4/5
v -6 1 3
v -2 1 3
v -5 1 2
v -2 1 2
v -5 1 -0
v -2 1 -0
v -6 1 -1
v -3 1 -1
v -3 1 -5
v -2 1 -5
f -8/4/5 -9/4/5 -10/4/5
f -7/4/5 -9/4/5 -8/4/5
f -6/4/5 -8/4/5 -10/4/5
f -4/4/5 -6/4/5 -10/4/5
f -4/4/5 -5/4/5 -6/4/5
f -3/4/5 -5/4/5 -4/4/5
f -2/4/5 -5/4/5 -3/4/5
f -1/4/5 -5/4/5 -2/4/5
v 4 2 7
v 5 2 7
v 2 2 6
v 4 2 6
v 3 2 5
v 4 2 5
v 5 2 5
v -1 2 4
v 0 2 4
v 5 2 4
v 6 2 4
v 4 2 2
v 5 2 2
v 6 2 2
v 0 2 1
v 2 2 1
v -1 2 -0
v 3 2 -0
f -15/5/5 -17/5/5 -18/5/5
f -14/4/5 -15/4/5 -16/4/5
f -13/5/5 -17/5/5 -15/5/5
f -13/4/5 -15/4/5 -14/4/5
f -12/5/5 -17/5/5 -13/5/5
f -9/3/5 -12/3/5 -13/3/5
f -7/3/5 -9/3/5 -13/3/5
f -6/4/5 -8/4/5 -9/4/5
f -6/3/5 -9/3/5 -7/3/5
f -5/4/5 -8/4/5 -6/4/5
f -4/4/5 -10/4/5 -11/4/5
f -3/4/5 -14/4/5 -16/4/5
f -2/4/5 -4/4/5 -11/4/5
f -2/4/5 -3/4/5 -4/4/5
f -1/4/5 -14/4/5 -3/4/5
f -1/4/5 -3/4/5 -2/4/5
v -8 1 -4
v -7 1 -4
v -4 1 -4
v -8 1 -5
v -7 1 -5
v -4 1 -5
f -6/1/6 -5/1/6 -3/1/6
f -5/4/6 -4/4/6 -2/4/6
f -3/1/6 -5/1/6 -2/1/6
f -2/4/6 -4/4/6 -1/4/6
v -6 2 3
v -2 2 3
v -5 2 2
v -2 2 2
v -5 2 -0
v -2 2 -0
v -6 2 -1
v -3 2 -1
v -3 2 -5
v -2 2 -5
f -10/4/6 -9/4/6 -8/4/6
f -8/4/6 -9/4/6 -7/4/6
f -10/4/6 -8/4/6 -6/4/6
f -10/4/6 -6/4/6 -4/4/6
f -6/4/6 -5/4/6 -4/4/6
f -4/4/6 -5/4/6 -3/4/6
f -3/4/6 -5/4/6 -2/4/6
f -2/4/6 -5/4/6 -1/4/6
v 4 3 7
v 5 3 7
v 2 3 6
v 4 3 6
v 3 3 5
v 4 3 5
v 5 3 5
v -1 3 4
v 0 3 4
v 5 3 4
v 6 3 4
v 5 3 3
v 6 3 3
v 4 3 2
v 5 3 2
v 0 3 1
v 2 3 1
v -1 3 -0
v 3 3 -0
f -19/5/6 -18/5/6 -16/5/6
f -17/4/6 -16/4/6 -15/4/6
f -16/5/6 -18/5/6 -14/5/6
f -15/4/6 -16/4/6 -14/4/6
f -14/5/6 -18/5/6 -13/5/6
f -14/3/6 -13/3/6 -10/3/6
f -14/3/6 -10/3/6 -8/3/6
f -10/4/6 -9/4/6 -8/4/6
f -8/4/6 -9/4/6 -7/4/6
f -14/3/6 -8/3/6 -6/3/6
f -6/3/6 -8/3/6 -5/3/6
f -12/4/6 -11/4/6 -4/4/6
f -17/4/6 -15/4/6 -3/4/6
f -12/4/6 -4/4/6 -2/4/6
f -4/4/6 -3/4/6 -2/4/6
f -3/4/6 -15/4/6 -1/4/6
f -2/4/6 -3/4/6 -1/4/6
v 5 5 3
v 6 5 3
v 5 5 2
v 6 5 2
f -4/2/6 -3/2/6 -2/2/6
f -2/2/6 -3/2/6 -1/2/6
